{
  "hash_algorithm": "blake2b",
  "computer_name": "IEPT1150",
  "ip": "10.53.41.222",
  "user": "konstans",
  "timing": {
    "start_UTC": "20201202_131553",
    "start_local": "20201202_141553",
    "end_UTC": "20201202_131553",
    "end_local": "20201202_141553"
  },
  "computer_os": {
    "system": "Linux",
    "release": "5.4.72-1-MANJARO",
    "version": "#1 SMP PREEMPT Sat Oct 17 11:06:19 UTC 2020",
    "machine": "x86_64",
    "processor": ""
  },
  "python": "3.8.3",
  "checksums": {
    ".gitignore": "2adcc4785238b82cbc20abb45ee129f11cd79cc9184bd14e0bad907dc151f96f29933156ae5f24852d28974527286f6bab9b4775d5755eb60839a86a5612a973",
    "readme.rst": "817cff9fe7d0e2f1b6537124bbeb52e130589cb7c0a645b0a64bba4102e4b285035f64e6356c837ecce406c1eca4c0aa1119759f4e268ff1ef9226ac5e6a16ca",
    "file_sync_compare.py": "2f7f3d11703ba01f023debe0e20a50f5f58c07cdc0ae9bf2e79eb664784b1dee87ae986eb450f5592527d1c1b9b01903367eb8fc4f39c584b1d1a22522239c1c",
    ".tags": "d74233020028c2566befb3828ec478862ded127309cca5c10c13ff11565f4538b5d73b9b23417ae69452224fb38d236101fef2314deffcc24c9540379bcab516",
    "some_folder/other_folder/abc.txt": "99cbd85749b0da63ef37309c69aaa7deebbe989ae13292c86e23575f603be3254a99d0d0d86100632a279f84463ca1ca36f60b2f0db22a7a2d82ef0b7a502645",
    "__pycache__/file_sync_compare.cpython-37.pyc": "157661d572c1356ea345cfc44573288622c7fb21d2bde48b962a19a4b10ef0ac4f2302e76414aaa827eb170e6b356306100e5e1170ea97e69f9bf1b7ea29aa87",
    "some_folder/def.ab": "3a3a4862d2c705a93ee48f0eac6002e52f06b37e7dbadafdca25d066b156da88e2c6ced19eccba89a603c456443ac7b0250aa2c31a59d5b93f68aa9cfbd333b6",
    "sync_check/hash_20201202_102337_IEPT1150.json": "909cb2dff4ae1d0e0f222ece75af82489eff1e032c4fceca75ee1a274d5294e0f3d398228dc1c20ee46905c1eeaf54caf08d9fca817e052e991a1425febc8b37",
    "sync_check/hash_20201202_122719_IEPT1150.json": "422a2899ca8d6bba3180d05060b550ff862b18c9cac9f1a0b2f47866fe72484d71a4fcc2d844f76dbef554bdaf4d282a94ddfc449296e142a235493e011bf5f2",
    "sync_check/hash_20201202_082858_IEPT1150.json": "45a5fe093adf531c5f2b9f34b652a5ce084de9c2d3cde1fde6703171e2ce7b5bf60a094390a3cc27fa9ec74679cb752fc877c22da3812fbf0880946dda327279",
    "sync_check/hash_20201202_094402_IEPT1150.json": "ff5101bd81b312810f79ced10acec93d63a1c56f3af920f4f8b304246bc7b364d882234be375c17debe37dec05a47809a7d365049af97061732e51633d63ae55",
    "__pycache__/file_sync_compare.cpython-38.pyc": "826f2306532134431e46cb72a61d1c3d0bdbdb102f374accb1e5f374898af9ad422ff3149a50a45d0bfd8835a0fad45c8b0e155773dfb5feaf0cb705dca56c3a",
    "sync_check/hash_20201202_094439_IEPT1150.json": "058e8024c1a7bde10cdafde691bfcf953a4b4cf3ab019ec5c35bbd541aed6f00784573f42aabc10bbdbe90b106a99b72bc83b3306fd3548d6b4625c65f9d97a0",
    "sync_check/hash_20201202_094528_IEPT1150.json": "2f16a63240708e3000d770c43d64b0f9a7cc11ca12591e1fee9160065fed3ea4e18a07e606b03d2e411056b6caf4cb71fae84787155910950082a929d9714167",
    "sync_check/hash_20201202_103405_IEPT1150.json": "a02b6576beb4c45cbde40531a67b8a621e684e34045fab9cac3f684a18d574d3d637243f606556730d022888c65ea322548d97494e4b0dc830b7e0fbc62f8484",
    "sync_check/hash_20201202_102820_IEPT1150.json": "3190e9dd385f2e9bf554fcebfde9341b6a8168d4270c7477710c696246b724ad70aee3ac91d693bd4046038ada3227c13f588664ec26e821c137777deae6e2ff",
    "sync_check/hash_20201202_082509_IEPT1150.json": "aee1cbd38878f5732bd647566efb4971cc00169c032c8f01bfe7bcb5eaf763cf756ab9771ac8442bed6aa3cf404dd9b24affa2933bd03d8580144f4c487e311b",
    "sync_check/hash_20201202_075307_IEPT1150.json": "129bb3d65815473c9dab79474e5b94af9196fa348b0391674291e4aa54066cd4cc7d068e8ee35f099b5c27765e36200f2f083e9b6eddd2d5ed664dcc1ca7ee60",
    "sync_check/hash_20201202_085151_IEPT1150.json": "ac8295acefe2a94b6714f617b32c0ebd6fa2da789ef76ce67d3242fd487c84d9d447b128aa80787ae3a3dc42bcaeaf82076ccfe24d6a6d573c64ab4af70491d9",
    "sync_check/hash_20201202_085347_IEPT1150.json": "e33227236dbfb6394f2fcf5fb833d5419128c1ec1ccb2784efb37229ff8c379d7d80d4fd701ed9c481978a48c04b12f72117e02c9b3b0bf85d204682318f946b",
    "sync_check/hash_20201202_122647_IEPT1150.json": "f8992a062f238f7abf51a5334b7fc93b88ee1e94dea12a1eb519a85be970345a1adf4e6a9238b8ee7d9d01b5c3ec31fd3af9d8cb74cc25a3aa475fe466e0b8c9",
    "sync_check/hash_20201202_122626_IEPT1150.json": "ef677790ad64757b57211d0b43802aedb81036f4929f0e31a1a96ba4bcdb9ab99ad3684226c4ccf0019257667ddc5198dbd8223f9eabf8c13832344f4162ba26",
    "sync_check/hash_20201202_122923_IEPT1150.json": "e3c77443c97936dba9ed9f186839c5fc87cea4ad655c1db2b0c2584e0a01aeeab03121dac523979b3275499d90a20190c93748d338cc1204c6699ac0dd88cdc9",
    "sync_check/hash_20201202_102802_IEPT1150.json": "b10ecbb3d408e771c7cef6c4856210aa62b306eb3c086ee70052d2917fa84f2975d3ccbac76a05c424a52c9ce1afbda85b91d673a56486ebca1e270590b594b0",
    "sync_check/hash_20201202_075310_IEPT1150.json": "d4a7a2af0991393151378c7c46394d490010a7254baab2704acfa5f7d5fb6c96aaff05a054485fdfa44238c9c7cba081b94604ce8b1f64d00aba9819bee667a1",
    "sync_check/hash_20201202_102202_IEPT1150.json": "01f623d128278675cb795852cbcd2b05a72bffd8708c404a2fdf6e93b71e5bf0a5939033281215d157fa3c1b86919b86d81f83cdb788d82aed6ea59cf10169e7",
    "sync_check/hash_20201202_085414_IEPT1150.json": "44d3c163b81adbaf8b21a4830e73276725a0bf2bd4bb24c8ecfe57c3bc5bb5d219e608e484307472f2d6924857a8ece878334b5cc051d8cd3ca0b989bd2934b8",
    "sync_check/hash_20201202_122925_IEPT1150.json": "6969acb0206b631dfcea15ebfefcaca758c99c45829ff22eaf4a9eee9f85269a8117dfff1577696da0d33c49f58761e3fb7573337db47cab55cd5d452c41f020",
    "sync_check/hash_20201202_131532_IEPT1150.json": "b2d2c3366d1bc60d3fc221daa0f70720547aa4fef1e1516aa8d18ef0868cd133622926123da1d9bbec166f083c09e1e87df17de3245a284533b67873c06ec5ba",
    "sync_check/hash_20201202_094029_IEPT1150.json": "33e00fe9f2fc232bc164e8ec59bd8772b5b705242047e02b7fe06ff2bd3d1a4de4f74cd595ce968cfb1382cf424cd0323c33e8eec4a5fbc5c9b512fd0400af67",
    "sync_check/hash_20201202_102745_IEPT1150.json": "154f1ea91583e4b5601134cf882cb20171cfd47bf12b4bacfd0d3c6d448f7422a13f093f73bdbf3e3001d7dcd979081ddf7c6a56dcce37a838dc5beaa418b480",
    "sync_check/hash_20201202_103450_IEPT1150.json": "a7a022efb1ca69f71434f2179f1ae301c7bc90de04ca469dfa9f4e084a4b7903fdbfcbbce3f3ffb88e9d170c7ed020d55499371e37692675f7590fba9f56c6a5",
    "sync_check/hash_20201202_122646_IEPT1150.json": "6af4d92a0af9c6f2580e2bee073fd5f2002fe96d1a084dbf70a65900c3a1ac69194cb2dcf34d25378e9a21b40edf889a18f3c91974b7e933654c40bf61bd6c1f",
    "sync_check/hash_20201202_093737_IEPT1150.json": "15a800fca2948fdff7712bfbb489c163100941b54441c3d8bfd56955e4b247a60611abd099eb0940f8682ea5dcca7d22bae5ac829eb8139326d05af6e15534d6",
    "sync_check/hash_20201202_103448_IEPT1150.json": "88780d01b3ed707e48463cd93e894a375583cbd9a0fc9bdaf2ac1d94b6b6651d9c9d8a3ecdb4f3f835c2b66e98f92b5ca9520d1bab6a73014b250858030cca6c",
    "sync_check/hash_20201202_094425_IEPT1150.json": "33018923976f2f5264139e24f861a394ff2a9e2ffa6a5b4aa3efca9d825e6cbef61fa7fc78ba243d9136bd91777d957c0e85732965e3a87ab488261756c8e0ca",
    "sync_check/hash_20201202_102357_IEPT1150.json": "748507cf2358cec27e98a75464826ad681dd8cd1e5c5c8cac4700797fc4336084c7f4c33eb262c70c87ec4cb295708bfa22a3002e426174147c5a35bbd2d57a9",
    "sync_check/hash_20201202_094003_IEPT1150.json": "4041e2bba4a2ccc2dae32625f201246f506e64ca02c3910904a2cadcf9b23bf2baae1bcf32462f5dffaee3ce3891dbb81c0a8c00886bdefafe321eeeb610c045",
    "sync_check/hash_20201202_122202_IEPT1150.json": "45cd89ff2f26b6ce3778cc6c07b3770747b33a800cf110b7bd870f8e45f17ea96f2a8dfe775914aa38f9c263cd37f3c3582388c10e032b6f08120fd2fd90362a",
    "sync_check/hash_20201202_102943_IEPT1150.json": "cf338c217eb331a963052acd65141145fdac2088c94e22223c8469927d77fb9bc67882873d20a47b778b475f158cf3176450ab5fdd7b95b880a171e031a8a110",
    "sync_check/hash_20201202_093832_IEPT1150.json": "d1f31efe8b66b26bf89af394229d25666e30afc3115df4b3827dcbc413119b53c288b89d18c9577c0cda8ce65c11eb23a19d3263ece7b11908808778ffea4b40",
    "sync_check/hash_20201202_093600_IEPT1150.json": "de4ed60a6a2455ba5c96edd285830e6397e7d5ca58a4916bf48fac4a2d94d932008694fe6ff0163ac38bbac359b28134041d6aca4400ec2fb0716870930a043d",
    "sync_check/hash_20201202_083108_IEPT1150.json": "61b7b2f575f58fd3bfedb9c3505029d1dce9bb898e5da23819d174fd99aeac926f10336c1750e0c689c61fa4385114c576ace7b808986a3f7c05c631ae6d13d2",
    "sync_check/hash_20201202_103001_IEPT1150.json": "2dacaf0faff25d9443c7627b26685bdede1e1030d08dd5b961b11ff149ffd37a02492ec6ad6dee375d8904f248e74258a6368341d48f861a7867a3bed3a30573",
    "sync_check/hash_20201202_094521_IEPT1150.json": "8d17b9e4f8b214d129acd4772681cc4e1c149d30d2cd6c7e1743043887bc22c34c4e0766ed504cf4672e0a25931d6621f4372592fb3dcdc0b33dea59224b3c41",
    "sync_check/hash_20201202_102406_IEPT1150.json": "cb6cbb8d9633740a3c28da8922b6c7b949759a5832c5e7ac4cfe67d68f447a465352886ac3064377f85fea15fb2d6eafd0345a2d8c21951cd5daa9579cba1b15",
    "sync_check/hash_20201202_082559_IEPT1150.json": "e68f34a698e7d905d1dd4529cdfed417cc9261d131458876a64aec4ef52aa516cf250732255cf255a2d04b736387dd27909388e2759177fca1fad07c285898a1",
    "sync_check/hash_20201202_082752_IEPT1150.json": "00cda7039dd7e4e7f3218c94c8e94f0fad76ef9e85ec3c088ca6b30ecfe4f6dc9ee875769a9d980a81dc96f4fd1484dbc6936b65fa95eec249ef3dd5404de69c",
    "sync_check/hash_20201202_102827_IEPT1150.json": "099b449c237b6a84d20ef502fd91326661d992a7c1f4e8f591bfaa18fb4ee581e6b5b9b492ec14044aa83c001b4545bfd52c5fe583299913b814aa858ec76fcf",
    "sync_check/hash_20201202_102818_IEPT1150.json": "535a5856d4f6161d0ead14a37059d32fbaa3706f65a1ca35b00bf32da4d76fc264aee879ff565718628ac3af2f5cb5fca60a989bafe2e3f6943623fb37a68550",
    "sync_check/hash_20201202_131534_IEPT1150.json": "40d410bb43716e436401ae6cebe64bf305248c68b2f53d4c5e005000ace522df5a7425a58338f485e218def7a489a6c7808d14f37bc7bdf19346c010fef326c6",
    "sync_check/hash_20201202_122720_IEPT1150.json": "f2ddc6c8b987df9985290a5fd5f6c9bdde8cc1d8a3fc73eb8cf5df9ba329bfb734dcfad895cb336dccc25fac59f39305b1aa3c0b6be1a829c1228c21f895f1c1",
    "sync_check/hash_20201202_093656_IEPT1150.json": "cbfda182f7f7333267bbe750744302799b600edde861c9d45be510825214a765f6840536d4597b864b20659deba0af8cbacdbecbf7767a949ca0831cb46649f3",
    "sync_check/hash_20201202_102259_IEPT1150.json": "6285dc4649004124edc84f166c4f18fc2ab3c37696883ae9a553a3d335f770b72f8c924e0b2e8a3e231144538ddf78ce15e17b868c71f86a563254d6265093b3",
    "sync_check/hash_20201202_103429_IEPT1150.json": "0716c551055d1f4cecddc5f0d9cf075264c627498f03d1b542870ad9518f4af2c66ffc978b84e27e4be89255e5de9e1e6ef6bc1061bffaff9679b6bb1d99cfc4",
    "sync_check/hash_20201202_102959_IEPT1150.json": "3c9051c58f8bb0b58664ab43b3553d22ea8b3e490f6eacfaf75e5ab2b3df61f8493a562d7d1bf48be6f7a0d5a8e99d6173776d56efa0b8fd55ae8c8976bc01fd",
    "sync_check/hash_20201202_122705_IEPT1150.json": "71a255b0c085be8134eda054f97397ce6c9d02c7c3eebdfe89db0f1e69ef8c607cc0ede3b8e1551e921da0609459808a6a904418e678036c8c2ba321ba3e36fc",
    "sync_check/hash_20201202_131537_IEPT1150.json": "87d9c343ab6ca99e26414f57fc303035fee91cb54477304037cf1bf1b9985a95ae41bd6adb3f164453fde6a856b013b0841fbebec330408525e6d7a5421476e6",
    "sync_check/hash_20201202_122712_IEPT1150.json": "6f8871ed1c30118636e13faf3009e8f1bd6c2f86c94289e2e2f0e2185f897029996c2f881c3772729eee78bc74128c3eb1797360e949da46df1d33254f32a94c",
    ".git/FETCH_HEAD": "7b35ec2ddcf61121f576d9e27f9857116caa00c889f172241612c465123b45d03fdeb439cbe3d9141b0399e29b16e4edee61ffe7e5b3271f2234795afad63fcc",
    ".git/description": "ac012ec1f022aca011a6b0d8f6bf42d991744193aa2b8c905972437ff9ed50a4f98677bc8405963b9de15ce8b113b133d1449b31b3b0e910448ee4190928935f",
    ".git/HEAD": "c5ef991de5c498413b9d9d9ddff01061d56e1c749c97ccb0b16ecab42caf2af3c58f6709e84a05a086893473436700cc63f961e26f129c2d5dd10492bbeb1b6d",
    "sync_check/hash_20201202_085423_IEPT1150.json": "42f73eb5edcc826aabf3f192d70634f19be35343573f6d19b7f95605977d270dedb41c59e736b51f8d7f5126bd685164fb05c49af2040bb29729b90eaae6747c",
    ".git/ORIG_HEAD": "0b941fa71b9347ba4bb8449c3463e742dce312533a8aa43772ebd5dff468dcb6278494c71366fb423a502e6f546ca076c19a260d12df4810e3baae2cfffa8b9f",
    "sync_check/hash_20201202_094328_IEPT1150.json": "49568192bf4180202234746863dbfd4479a8aa46e0aebdaca65a911ec64b3792a781a75272b19262c3acc1aa058e06a0b756d5292638a065c7d7bdb083941228",
    ".git/index": "4221dd6569ab14fdaf29aa1b055c7baaad5eed7374e4d77bfa93b8e68eb4aca829b2417eaa3b30da0ff51433bc696e4876684715cf79f9ff2ce13dc4ee65b273",
    ".git/COMMIT_EDITMSG": "d318651ce167cf29a6812eb2b88d3f6076bfe5965cc70a1deb5c8189de97e89c9df296f84bf1e8f727fec07ae461de3a17aaf6b96ef6941a47bbc5cfe4eebf3a",
    ".git/objects/84/ced771366dcf42545691dc2185260316048da3": "c032bdf1b56eedc3414c19014865f8d3f55c0f00b324b71f1ba323e258eb4ed4df637fda7cf5c1b717049561e09a7e5b700a9ba4e8a6cc88a79e7590094f91fc",
    ".git/objects/54/ef1a9e0d7e4c88e5259f2165a604fc656ab27e": "9e6550431d9839bb1b065cb3f7aa90fb36a770fb208350c6298ba47ae7ba7491fa676731e25eaa7d69ec64057288d1b5284aac66df02b0d40377a91f54ee9d7f",
    ".git/config": "ce6e27cf38f0418b62fb301c1eae4a7f61397d641f3d41c92195ec9e4672f7afd2249ad2b4148f3e7d086bc682226ceef3ff1b64c698c1ef8105f56f80abef97",
    ".git/objects/84/bcf9721cc32f7d366cab2dff799aa8cb89991e": "de537921afb7fa0285f2102989e2d839c1c46d209fa95762576c884e8fdec4df0863ef42b5f6e07877aa70b2215bda6a52cf30e049e5aec1c54a14b99057cc4e",
    ".git/objects/66/a09e0b3bed277e5b8ba2870f41324dc813d973": "df99aa9446411643b4ccbece41664111817a52444b2c25fe85a8fb592471c9b184751ac2767a47cb478e6298286e254780f5fa36060cdd000c197b8305a4384f",
    ".git/objects/ef/f1305cbf0304fb5163e07923f9dd37afb55e8d": "3ad87c602155cad2162f56feaee58ddb1a2aff5505ff8d44a96744a1ceb2459ce7e6f8a6d5fd0e4eeb0265f401ec8e73a433f31b66ed6529cce0992f3efb3d18",
    ".git/objects/b2/3ed22bebc8c00b17ee0fcb9082e2f873aca578": "b2b6ab6ed411a68a3100b912f1a4c9d052add883acaec06be4b3effda2a535da52d04c8a3bd7bb668e6067f473d6da574d29dcf2dba4590d438f1d56bfe84710",
    ".git/objects/d7/684eb6086df041af9486458517e15ad8cfc6eb": "0ed5391aa96a1c040028fe89f367bc9cdfe720589b9a5373e8a8aa2a221da7314e0ee04c74125d8df1b0dc7f4bfad33b46682219f37927b1f2dfbc31c83825b5",
    ".git/objects/79/7e2edd25883c3da322cf8258a10b497b8bcde5": "9d8628d92269c79da878403c3b427f8fda3dfb5770a2ed213806e50b557392dc6a93f22246156f605cf0c7298d3c6272015c23d925a2ebce4b9055e2c775c3b6",
    ".git/objects/69/1be0dba727f46d2c1ced7a7f7b3053a100917b": "3f95720f544bb050fad16c1f7113c5c9d740fceedc4e1d2815c1a1548552c410f0e78558b17e03969acb46d2b7e04a4d5b6c5e8966fe6888dc3a8b9f94ace9ab",
    ".git/objects/d7/cb3f92e64b949426997428788715d3de9983b4": "e3ac64e2ed40f26fa30d50d86c55d9e49055de2ddbeaaef078c84a0b2ababf1c41a2f1a7d25a4a3438eb2461bde98ec0234adbee31510a47f2aa2300a9b85c66",
    ".git/objects/68/454f06865d22b7005c4f6ad9154476fd82b97b": "1dee0e01a7a408b708f20c283d386db2b07c58256bb00f2ab51cd62d4a496010832835900549ca4585b372161b1e095363b4d3c1d1d5ca241eeaa484f3d43ef9",
    ".git/objects/86/5b14e210f0ab8faace169f707780b5918146e1": "9b773b36686b3b9e6954dd0c35c4d65ffbadfc9480f36435c4350d89d601e6da7be0dbee0b7447e48e22d84257d04d9dc4724d41c8893390a739e0d0540da20e",
    ".git/objects/da/6d50f0bd85bfa69cc39e725c7d7f2279e2f51e": "761acde30e565dce0610b5c20e9ed725030bff8d6a4942a7b4bb4b8680295fb905dfd0edc6ab34100a6320c56724bcf91310f3738553d63a92f05903506b0c27",
    ".git/objects/1e/e5d8363a257386e5d98433ef13dcfbd752a69b": "bb024743ba0ed8d2a3c0e9b823cd17b227a383ae93cb35112eea4ca231b0a879763c282d4ac77fae128a587dc31d22345cf0e79c9e59e473394cd0363368163c",
    ".git/objects/23/0627d72ad8ddc9c3b59fc17d41bfa38db64d18": "ca45c03b73ce193016d9239e96c558ca9a387d0d78b10b23da0fc71ca92f1f6f04eff7e0f2c64c6f8110c0e8e0fa059b0c10aa15f7f1a09edab2788d60f14ef7",
    ".git/objects/df/82e511a130bc3788b935c83148bef12b420f1d": "a69ac7914646d06171c895191736a457846cbd91cd1170a222fe590d32201f61666b245e7a9ba11b9ad8759bc9ef94bd3f4fe6448b1eff78ae91ec867abcfb0b",
    ".git/objects/d0/e16df7789db630b9f002adbfc14af7e8117808": "06a6f482e3d893dd114e8783a89486ef6587da686dbcdb4a96eb0c184de2da06c0f09fd7e58c3d4972f16706ff3b39e6f05f3bc23050ec641237ce2a928ba9ff",
    ".git/objects/df/b2a67cd90234662b3816169d9d5d4bf3563425": "4ae4453e22d7e80e249327f1735c5173f88ca3605db209a80715030f2ac0dfeffea42cc35f6db918fb2315304266b73986099a92b02bca3478c8712532e5b6c6",
    ".git/objects/a7/4f7680765888aec199c072dc41da6b6e87199e": "06ce2fc80674815f42d41d7e775b5840a449c78341d38b276fe55edc80cae5e74e079487493a264c74e37bf5e7917908e5a08c058a870b3e656bf89ead824730",
    ".git/objects/4a/a1f1c514eabfc7166bbf435c79c00ed465c735": "b83727418a9b243bbd47f02c685dc58f6261999d479c16499047237c7f58cb6631ac88adad17fe17bfdddde38f441c5209cffd69adee2f8757309243e2c801e3",
    ".git/objects/3f/10dd2bcd8d04b0e8df40d89bae5d393773fa84": "3cd7d8078c7b0a1c69a79df3599d01d82eccb3b72a78e9776e6a8e2962558f322617de0866d9e87aa4c93cdd9a74ed7a4724d670bcfa82b17c4b8f892eed85b7",
    ".git/objects/a6/0bdb91161dc5bca59b41e9a803ba092b59361c": "049bec73647afeed482c36e02d365152d9cadc0e383c6edd3f8efc8ba09539dc9b24475ce0b23a70e658deb1a041f19f984a13da99bb41d2ed3dd4de8dbed468",
    ".git/objects/f8/1b33f5c4e9be7b8be18c6e41f91779fbbadb72": "f29f4c1945371c657efe4333efbfc6b991b0b61625cf88b0d2422a53950fb2eb0afe751a866865b0b567901ea20f820058a96ff1909f87957016b0f97e42d092",
    ".git/objects/c7/64259a5feeb0ed1f8fe0df65de1ec57b4b6693": "113f1aba917e78222ef4058a1645c33487be1ef33974ed5ec58f01bc93058a695ddac18a67e1576c603efdf6cff09ecd008381e7c61c2d84c09b92611d2b75fc",
    ".git/objects/0c/1c0fd0933fca07b6349949882e2efe84b2cd51": "9c63c2a5112a3e0af7f18ed477386a5fa14ee0dc6ba390c651b6f2a97cc0be3c484235160ab3474854c307dcb8d0cf45e4701796b6660c4b798d90f270557455",
    ".git/objects/c7/1526b539c0fc3fd56b4ec5f0e499e5dde0d14b": "2151346e0df960232441dba72d9167e1bd18c75699ef93fa1e4f25df97e3d3bb95de8a395b7b4bca215ac2013898268e279893960e901d834eda2f10b61b84c3",
    ".git/objects/aa/d7992cd61c3537fc1e0fa03f461905edd6039d": "7f9443e28eed40714c739722da53c58b5fd5f4bce5cbd03501a01552b1e9f553eb7cf6caa3f176511f3adb82cb967e103615dad0cd9f197a9a40e64585406e6e",
    ".git/objects/6d/aaf8c262a13c5bc4acb4642d85e613091a0f65": "41c396924a54a994a8fd47df0d4c08378c49c68ba3f5160a134b7e29a56694ca090067c96a58525305c326f628f9c5df6d8d33051f781eb7e2e27b9b707507ae",
    ".git/objects/7a/48d1dc77fd8cb6a612abc9f46b3bb5a8cb8627": "9a42bf386ed6fc2d1026d5770ea9f7e2cb8ae5bf7bfd6ead12402042f7e1a921350ee3f2a240bff68fb219928bf72b463cc1a51040b0030df84ef07a2656ac27",
    ".git/objects/12/c3c6f709c3517264ed4df67b3d15f43a985159": "4b9b545a0614f0c6b9169f9c487edf462c7cf64333e11fc9b6626f07e5d63c6a16c92f8c3a3c85e0259a6194c193c037978c5815b2928359054780f0069ce235",
    ".git/objects/e8/8513942c06622384cc29904a85ffb90954f46e": "e9fa8d2d21e6a47074ee59df6f99f39277892784c608cebe10aaaa1becb99a361b1885bedb150e7d6004d5294d08c9695e685e0e96b5cc7a75f1a389d2cdcd73",
    ".git/objects/cd/a67461dca571a441ac1ff719973bdd65b70a52": "4528ffc907352821c857f1736d096fabfb4e151bb98b67bbfa72490b3cf82338408e681eed10aaf146b89cdc8f242d93b13530b6d8c58bc17b8a580b053fcb36",
    ".git/objects/16/1bec014ca6dedccc4e38f876aa64ae56253e57": "f7dee508ef6159f19f720a182d3da163f69f1170348b45a7ec3aa317e4dfdf9cf6a83c4c3713f04a8721cdb014de488417163dc8cd74fb01121ae6e4c131d7ef",
    ".git/objects/90/a27d144695ac1959a2d8df4ed859850944de10": "4e65c6bac66dc5e14ecb102b3e48b1c63462747574f49f33d566f208f2c85cbf53c2d75561d5edbe9a7f82ad365931ec70bb16482f0909348cd704ebae46d0f0",
    ".git/objects/1b/f6e665860661a09452242d2585b380372f061e": "c4b0d7e1168d34e6dad6e2f97dc60deec0c567d93d867205ac48909e9542f4a1b0706f9847de147cf47c5ebcff6f1347b3695dc38b94e76fe5e24defb1c6822d",
    ".git/objects/06/56ffe94dd5130a48fbce71642d498637f83ed4": "6f82996d842169deb21897356571617d815c8011c77d33a0178a8af85aa68cc71532fb641fbf5ba66bdcb92a91cabe02026c30b6430796ec6f4c5d7f3682bbeb",
    ".git/objects/32/29bab1a3f7609e5624ada34cd8411697b7d828": "20fff66a2bcd20aa0ff7fdea6ddce6f090c9485c892f34881597d1a37221515ce755c4ca1f34f5339de16e4fecf30c9c9e553f0dabf156974b125b51c9f3e80d",
    ".git/objects/93/897fb3e081c4927bfb2b5eac75d6a320d9a816": "8129f3473d43ae6b101771edf915613ed9115e1b7b30e58b3fc8b5d66c894e6f034a7402aee3f3f361bb0946f9df3a26d662b7754b585b3149b92546d5ab4ae3",
    ".git/objects/bf/9be1ce7ac64f4b1f931803a3d2e4c56ff84737": "4587dd6a65dfd47b31b36e93b01d80c37833f0783f296e8804bc30da908af8005ebb30f6b449d5b0566716df64a04ad069a8d31767f4b18207df8402ecac44ba",
    ".git/objects/55/2746cd0766f117955fc4aa2a2b5bb5cf79ff9c": "43eb75dabab076fbd0dc92673815bf24f0dfb43df438189fbdd94524ad1fe448974a1eacdb3e9c3cde6c54ba76d74fc676cca02cf14d1532a049e78a6bcdba1e",
    ".git/objects/60/bd8ec818308b8dc9354c4fa0f8df9112f354c6": "b5d91b921d4b0f09a035223ae394c32a3e6f16252479c45b21c628b5bf3700a104dfc65bb7348f6328232e6ec6f384dcd2f205244208e5949e861337cc5e613c",
    ".git/objects/39/7c378357005f0ed5b06c66bf530503b0950340": "f8d74bc73901a493fb97c75fc40f91407476ea6ef8d12fad48df53b1b67b6846476b9be0a3b031fdde00e164c37277199942092d6d536a2cd232ce20ce214529",
    ".git/objects/b1/3d82334ba6278cb63c40ddcd504655e95ea624": "55c40c0afd4963c2888e2a104054f293e5fb7c54aa36317b429af51468d9edf41c9946e949683caaab7d450466349ac34b51095b6f78afae6b21f6cb925b877f",
    ".git/objects/e1/de854582bfa74c4db41a5c4e8ad2ff44112ed2": "df6584121d2d0ab4e01348b55a79ee7e13f92df2f6a0d5711da9a753c2c4f6b3dd12bc8911516f5154696ad5bca76f3ce45fc1978e1493b85e9f899edc374346",
    ".git/objects/f0/2d891ed9513f8512e2f2692841c5f41bb2c285": "28bcf4bdf32c5f0225ad3b761b42e2f7c59d06a9c40bc721f665ddb0a01a1ca1b912118195edc2fa1ba6c4bb434529e015c26bcbd16f950f9a267a1558f394b3",
    ".git/objects/eb/7abc1c768818ef4d32b370b0daadf73994a6c1": "43e2d35383048d16a8e19a07eef3a0c12652f076e3b05b17c2a7396455f13c3e3206150fb734e193816443853cb688325c7ce26fb9477212f146ef297015a49a",
    ".git/objects/6e/3a8961b73043f2641ce7bfa862c996e249ad54": "ba0927b93fc6756e330c193f0f4ff79a4f7a20b6aab59d188ac96263fe2e20371cf4431220b359f540b4c4746a19fa402a14f433dfbef050be49f97441af4846",
    ".git/objects/d4/1bd4ab689075c0e19bc65f0d74aa4ac152131e": "3fc184af3dc7eb49b63de426f7a5d3dc9cbd90871599a411d254fad0f5f1bfff0e0867e7385266a450b6f3fd31f2b345e3188e76bca15d69da5a862765617ce3",
    ".git/objects/e9/e282f021af28e01c6e5124d44a26a76aaf5d94": "aa2bcb7872cd05344b0858c468fd7afb23ec492d3b3cee8cb9325671a2bda34a25402a5594c0f5b8fd5dd78049750637956a8ef40e6f8905f1d641d3320a9b6d",
    ".git/objects/39/0230bd7416e1d405b7bcebc4d29854c2c7592b": "765edf246df484c7c885e2aa9209e3d713c6c7a9887066443b551c123dcc370a6d648c4bb2c4497d2cea31618c89112226c58415d0a5e2bd1642264745baa11a",
    ".git/objects/9f/486c3e15fa8b9ebdbb2f7cc2dbe5dcf4166dad": "c5d2b726b302e0b9827354b161fe4eaea70f367d9db4b56a33cc672545b5e2550f530a4764f1ee96591e21a130166be72dc5ee45f381e597b6af9776e0627a06",
    ".git/objects/67/4215c7b771f881e85abd777fd22605f5b8c5b2": "8768930c5b79996ebc47204c5da9591e6a6c64dbea2f8d9851894dfc844680a3fdc9e50b36cc0a6d2de8d136d8ae73fc169b2015ebe22bd2ad09404f7a235ddd",
    ".git/objects/c1/a2a8d80f8f7cfe183e2ffad657dd3bb5daf05a": "0d4f8348a44450969cc1c47de6da2f2abf23e6697f4176b42f6796268b9111490827d9c856e33cf6b1b8f03e378b53fbba1ca40894b9a362c7d9d5a1afccdf9a",
    ".git/logs/refs/heads/master": "b7d50e1a21dfabaeaa8ee9647cfc4593e30173a711df48e559f3369359a94ba1b9c1b1d311f48813b6e93eaca909bc7e1ac58f211b2902be5b5022604dc1555e",
    ".git/logs/HEAD": "7e9a3641ba8ee4ad059f361d531e62b68941eb644381beda792d87fd094e2d66926add6cf00bdc86029e67b1f8f79c38d1b2df4565971eee366448d29405b257",
    ".git/hooks/pre-receive.sample": "869ffcb741fc29e044c2e632174a697fb2c0fb15a40d8258acc0bf440a48c010564f6406b339ddd443b529b32723924421f1d9b98c9601c94df67f9377cfdbf3",
    ".git/objects/6f/96ab9c40bcbaad50899780e87af6507997ac7d": "40a90f4a69e0d8be546a70c77300383eb04076c6c2676e152d6141ccf053604c792df78bf7b5f07ffa4d40b4013f6ae6ecca147f8d7ea45aa792738b59531628",
    ".git/logs/refs/remotes/origin/master": "d9d7a351a628e0c00fabd082f66d1f351d8947b8b6669104ed40e47227204f6782d7362cadc4a66bc8935da732bd1eb582d583b1f8a150666b8a03f847b75acf",
    ".git/objects/b4/a71c8b724fbb46cf5cd6a289957ba60a908b02": "463ea1ad862cc9634e8863bf1b3e7f5770d9bbf785fe0dae231d19dfe35738f094eb4fc7f015332828b173007dbdc866ba8ab850b2f486b2d2e166a217e90d3b",
    ".git/hooks/pre-merge-commit.sample": "10a0ab86400b14f28f1fe80f589e97fda5b87ec94dbf2275085c7106a3320415e933f25ac9ba9d7bdad22e816ed323272fa5411d3b121c6162fb34e84eae3529",
    ".git/hooks/commit-msg.sample": "b5cbf77a3a203c58b0469267544b8d8fb405364086733391d9e233316689ca8f3690852e061bc0fd938f5aa300cf08998fa1130e57f289b2932f0897e447302f",
    ".git/objects/b4/388248fac3086be0e9e836ff137c8d88155248": "f46064da8f0fe58ecccae7c5fe848b09a0cb26e9ba5448cc177bc6a23b77c4b7577164f73bddd0648a6899bf84962c8419bd3bd4e25580ff51de06d23310c7b2",
    ".git/hooks/pre-commit.sample": "ab9a461f4ac9317f77b3fd56e1daad8b5bc73215c677740cba3f24fa2a2eb8dd97fadc606fd83fae22dc166ad9fc3d61ba142f2faab63fde34c5b00201d9d30f",
    ".git/hooks/fsmonitor-watchman.sample": "ecb2be903b9bdd6c6737113c840fc6f854e7e6dc063ab241492cb5b2a8cf06da754de1f2e9b3eead321ef673a3bb1eeb37827bd289234452f50a431084146d1d",
    ".git/hooks/pre-rebase.sample": "3fa241d7c4e2566dca6f87eb65ba5cbf5b30f923944735e6fb78d99881cbd7f61e5c0db823b0f70db80feef1b9790e10f74f27068c8fc5323525d66d02c51369",
    ".git/hooks/prepare-commit-msg.sample": "8d22228475d20d6c3b16d668126e2527353515526c4fb9da3016ca610d4592deaaed36e01f3efb174496a16dd87c593ee8608adf100be31ec959e52e1123c5f1",
    ".git/hooks/pre-push.sample": "d37a4cf43a37e4bd527d35adde26aa5e8e1950fe709f8a1ac96dc8788e6f244860471492c1b2a8a7abeb6aebdb61854267519b3564eb3a74d5470ca50980b753",
    ".git/hooks/applypatch-msg.sample": "e427cd2f218658198bbf333ccbd7f42c703a9aceb29023662e3ca8b4e4f71555b6fb701c5ba9b315025a000baf2146bd09e4a2f7a13e54d5049db1f80a40b0ae",
    ".git/hooks/pre-applypatch.sample": "434e6e5e68568027e1cc7c7a4f7856e9193a71ed653a402e9b299a9095def9b97c6030f0e2b0a9020817d2c54a42ec65b2a1afeda009905325273657dd399e0f",
    ".git/refs/remotes/origin/master": "0b941fa71b9347ba4bb8449c3463e742dce312533a8aa43772ebd5dff468dcb6278494c71366fb423a502e6f546ca076c19a260d12df4810e3baae2cfffa8b9f",
    ".git/info/exclude": "7c0fb21a44258fb1356d6fb772555a27b86ab274236d2ea8f45035efc929b2d30b9ba7a975bdb3019832eb272e5ecdf21ff837675f923ac81f46bdd04d795bcc",
    ".git/refs/heads/master": "0b941fa71b9347ba4bb8449c3463e742dce312533a8aa43772ebd5dff468dcb6278494c71366fb423a502e6f546ca076c19a260d12df4810e3baae2cfffa8b9f",
    ".git/hooks/update.sample": "3ac2dd5a48531113e042aed1621a3f5cc5bec85cf64ee8943334a723cfd38c8f425e048f59be9b848c73e784f581de9624c95c4e8a84479bd9317be4135b3483",
    ".git/hooks/post-update.sample": "059fab648a6c9bca17bb96d4e20272aebc1b3cdcf72764c2fb72d1ba919db84623a6f7a5e1da10c89936229643e88a5875c93122022ec5b63c15aafe561cff99"
  }
}