{
  "hash_algorithm": "blake2b",
  "computer_name": "IEPT1150",
  "ip": "10.53.41.222",
  "user": "konstans",
  "timing": {
    "start_UTC": "20201202_133543",
    "start_local": "20201202_143543",
    "end_UTC": "20201202_133543",
    "end_local": "20201202_143543"
  },
  "computer_os": {
    "system": "Linux",
    "release": "5.4.72-1-MANJARO",
    "version": "#1 SMP PREEMPT Sat Oct 17 11:06:19 UTC 2020",
    "machine": "x86_64",
    "processor": ""
  },
  "python": "3.8.3",
  "checksums": {
    ".git/ORIG_HEAD": "0b941fa71b9347ba4bb8449c3463e742dce312533a8aa43772ebd5dff468dcb6278494c71366fb423a502e6f546ca076c19a260d12df4810e3baae2cfffa8b9f",
    "file_sync_compare.py": "d6dbc493b30dfc071dcebef485e85efb0cfd46d50c5e6f09d0b1d656181c31b09f7d11f0cb04cac45c6cecf747787ecb9f05622edb43d7c25567abe04879b4d7",
    ".git/objects/84/bcf9721cc32f7d366cab2dff799aa8cb89991e": "de537921afb7fa0285f2102989e2d839c1c46d209fa95762576c884e8fdec4df0863ef42b5f6e07877aa70b2215bda6a52cf30e049e5aec1c54a14b99057cc4e",
    ".git/objects/54/4ff0aa4d84f87cccc12c0ce005d48472e772af": "0ec62111af0475f2d632eea7d36a7851da2d02b45bd9f50af8015b675cf9aa9de575e5e09cad663197003b60daefbc1c03b60682265996a9fa717f6ecb9d3732",
    ".git/FETCH_HEAD": "7b35ec2ddcf61121f576d9e27f9857116caa00c889f172241612c465123b45d03fdeb439cbe3d9141b0399e29b16e4edee61ffe7e5b3271f2234795afad63fcc",
    ".git/objects/df/82e511a130bc3788b935c83148bef12b420f1d": "a69ac7914646d06171c895191736a457846cbd91cd1170a222fe590d32201f61666b245e7a9ba11b9ad8759bc9ef94bd3f4fe6448b1eff78ae91ec867abcfb0b",
    ".git/objects/f8/1b33f5c4e9be7b8be18c6e41f91779fbbadb72": "f29f4c1945371c657efe4333efbfc6b991b0b61625cf88b0d2422a53950fb2eb0afe751a866865b0b567901ea20f820058a96ff1909f87957016b0f97e42d092",
    ".git/objects/86/5b14e210f0ab8faace169f707780b5918146e1": "9b773b36686b3b9e6954dd0c35c4d65ffbadfc9480f36435c4350d89d601e6da7be0dbee0b7447e48e22d84257d04d9dc4724d41c8893390a739e0d0540da20e",
    ".git/objects/23/0627d72ad8ddc9c3b59fc17d41bfa38db64d18": "ca45c03b73ce193016d9239e96c558ca9a387d0d78b10b23da0fc71ca92f1f6f04eff7e0f2c64c6f8110c0e8e0fa059b0c10aa15f7f1a09edab2788d60f14ef7",
    ".git/objects/6b/c76b727b030687c81c456c7c146a3909cdb9e7": "2ea1db646d6ee4c5fb00dd452eec0c22209131c84239d01e88ec237c3810b7f48e9dd7155ee758026802654decef2562bfd8ed7bd0edffa96f5f1e2c5ddf26e9",
    "__pycache__/file_sync_compare.cpython-37.pyc": "157661d572c1356ea345cfc44573288622c7fb21d2bde48b962a19a4b10ef0ac4f2302e76414aaa827eb170e6b356306100e5e1170ea97e69f9bf1b7ea29aa87",
    ".git/objects/0d/73f4675bea669f348dbc9447efe3a190a91cfe": "89b400acdab3cfdfbbd129dbd9a11802dc32ede4500d4c071956c412e67855efd192d1702920cb47daa4e55fdd163e8bb5cebbe27a37bbe4efb164e96f2c190e",
    ".tags": "7968d1566322349cda626e5d43e56204ffab891668eb3170b56d7ba593ebb9c99e94d600af59a632acbb71be56e94b2ed98ffe0eac3ce1d770ca3aff136ae60b",
    ".git/index": "d89969b319ead8c7b7ebc038e1fa0eaa98932809bb84e4e8f4f0fbbf18ae7a71b66df1dbe514a86c50cc08843d5e576615ce9a9e0b9bd07a8a8322c8183cf905",
    ".git/objects/df/b2a67cd90234662b3816169d9d5d4bf3563425": "4ae4453e22d7e80e249327f1735c5173f88ca3605db209a80715030f2ac0dfeffea42cc35f6db918fb2315304266b73986099a92b02bca3478c8712532e5b6c6",
    ".git/objects/d7/684eb6086df041af9486458517e15ad8cfc6eb": "0ed5391aa96a1c040028fe89f367bc9cdfe720589b9a5373e8a8aa2a221da7314e0ee04c74125d8df1b0dc7f4bfad33b46682219f37927b1f2dfbc31c83825b5",
    ".git/objects/c3/4658c1a1ea09ee77ceb0825e8e125c1cbade30": "62afa0b3cf0da20e2a91642af76dad08375f14b7cc19b06c78f0ae0e7a5d988a0d1e4ac190735aedff894b6c1f10ba2607ac338931ae822fecd1400f3ce129da",
    ".git/objects/69/1be0dba727f46d2c1ced7a7f7b3053a100917b": "3f95720f544bb050fad16c1f7113c5c9d740fceedc4e1d2815c1a1548552c410f0e78558b17e03969acb46d2b7e04a4d5b6c5e8966fe6888dc3a8b9f94ace9ab",
    "some_folder/other_folder/abc.txt": "99cbd85749b0da63ef37309c69aaa7deebbe989ae13292c86e23575f603be3254a99d0d0d86100632a279f84463ca1ca36f60b2f0db22a7a2d82ef0b7a502645",
    "readme.rst": "817cff9fe7d0e2f1b6537124bbeb52e130589cb7c0a645b0a64bba4102e4b285035f64e6356c837ecce406c1eca4c0aa1119759f4e268ff1ef9226ac5e6a16ca",
    ".git/config": "ce6e27cf38f0418b62fb301c1eae4a7f61397d641f3d41c92195ec9e4672f7afd2249ad2b4148f3e7d086bc682226ceef3ff1b64c698c1ef8105f56f80abef97",
    ".git/objects/d8/dc1e72add680e5c3aa301755978f1e809d9a81": "b5d4fd5ff40213bcc2304a42873af5aa60ab0f201af2d4ae133e4a1095f757c260470604c7fdb5348a3be2e46137ef98bbe4c57312b12e45528a972c7dace70d",
    ".git/objects/31/532e62bc799941fe6e68b29ea1cfb56c1f0ddf": "e05df9f951b4bef5da0760a608ff90676412b546722785afb551d186e567862d5db3248a059f02ac520f5af1187bc63cb897167c36e9543443a88e4d9823a56b",
    ".git/objects/d7/cb3f92e64b949426997428788715d3de9983b4": "e3ac64e2ed40f26fa30d50d86c55d9e49055de2ddbeaaef078c84a0b2ababf1c41a2f1a7d25a4a3438eb2461bde98ec0234adbee31510a47f2aa2300a9b85c66",
    ".git/objects/68/454f06865d22b7005c4f6ad9154476fd82b97b": "1dee0e01a7a408b708f20c283d386db2b07c58256bb00f2ab51cd62d4a496010832835900549ca4585b372161b1e095363b4d3c1d1d5ca241eeaa484f3d43ef9",
    ".git/objects/84/ced771366dcf42545691dc2185260316048da3": "c032bdf1b56eedc3414c19014865f8d3f55c0f00b324b71f1ba323e258eb4ed4df637fda7cf5c1b717049561e09a7e5b700a9ba4e8a6cc88a79e7590094f91fc",
    ".git/objects/73/e8509e0e6ac5275b74586fd7e9b64a87481dfa": "70fb8fc307feb110b9fa94b2676ad27872f5202c6396a967e59f41795572623ce2ecffd01718d4307478d0867a52ee3f2416db2b2adb6b397ea297af3be6387f",
    ".git/objects/54/ef1a9e0d7e4c88e5259f2165a604fc656ab27e": "9e6550431d9839bb1b065cb3f7aa90fb36a770fb208350c6298ba47ae7ba7491fa676731e25eaa7d69ec64057288d1b5284aac66df02b0d40377a91f54ee9d7f",
    ".gitignore": "2adcc4785238b82cbc20abb45ee129f11cd79cc9184bd14e0bad907dc151f96f29933156ae5f24852d28974527286f6bab9b4775d5755eb60839a86a5612a973",
    "__pycache__/file_sync_compare.cpython-38.pyc": "826f2306532134431e46cb72a61d1c3d0bdbdb102f374accb1e5f374898af9ad422ff3149a50a45d0bfd8835a0fad45c8b0e155773dfb5feaf0cb705dca56c3a",
    ".git/objects/b2/3ed22bebc8c00b17ee0fcb9082e2f873aca578": "b2b6ab6ed411a68a3100b912f1a4c9d052add883acaec06be4b3effda2a535da52d04c8a3bd7bb668e6067f473d6da574d29dcf2dba4590d438f1d56bfe84710",
    ".git/objects/6b/131ca620319ea42042c858e992811c0f6533ff": "39e5f127b21f67da9b13ee7a5eb13f07b112da6a297f6a8c96e4cf1738adeec69377c282e0b590e9fbb48151e2516fe4eeeb1cd4b0ef979c673b5bf0a79a33a3",
    ".git/COMMIT_EDITMSG": "c2debf256c72cd328d0cc467e0ad9b88e840471d85ddd00c17b8246172b0b929855f96e93cee91ff149f4d6a0f60c282e84624a81947ac63e119bb389086a0c8",
    ".git/description": "ac012ec1f022aca011a6b0d8f6bf42d991744193aa2b8c905972437ff9ed50a4f98677bc8405963b9de15ce8b113b133d1449b31b3b0e910448ee4190928935f",
    ".git/objects/da/6d50f0bd85bfa69cc39e725c7d7f2279e2f51e": "761acde30e565dce0610b5c20e9ed725030bff8d6a4942a7b4bb4b8680295fb905dfd0edc6ab34100a6320c56724bcf91310f3738553d63a92f05903506b0c27",
    ".git/objects/ca/b0ebe0f4dcb5dc7e94060a40dbf5568d696a48": "afdb60df83d94bdb6b2dc3625ca8f43327a08fead6c4f21b533750e498997708464fe1a1767f662f52a12d3cf560bd396fb8bca52c75af6c924143e2e8ea8d9c",
    "some_folder/def.ab": "3a3a4862d2c705a93ee48f0eac6002e52f06b37e7dbadafdca25d066b156da88e2c6ced19eccba89a603c456443ac7b0250aa2c31a59d5b93f68aa9cfbd333b6",
    ".git/objects/79/7e2edd25883c3da322cf8258a10b497b8bcde5": "9d8628d92269c79da878403c3b427f8fda3dfb5770a2ed213806e50b557392dc6a93f22246156f605cf0c7298d3c6272015c23d925a2ebce4b9055e2c775c3b6",
    ".git/objects/da/e846516a2e992e0a4b78798added35f9cbcac3": "5183a1512bd0ddd25742086b80500e765122b83873fe380dfe83b06ecc1f7c1ce377c545407f21b0aab66ea6917efe941d7fdf77481db04004d996c8131b5dc7",
    ".git/objects/66/a09e0b3bed277e5b8ba2870f41324dc813d973": "df99aa9446411643b4ccbece41664111817a52444b2c25fe85a8fb592471c9b184751ac2767a47cb478e6298286e254780f5fa36060cdd000c197b8305a4384f",
    ".git/objects/23/d791ed691f6fcf11311badf10015b53fe66248": "c480d001954365fc7959e044cd29eadc7e178b69c398d4c5120f6a420abfb2ed651d1a414f624073763608ec804ac39d8ab56551e438cb352f66ef49ffabbf49",
    ".git/objects/ef/f1305cbf0304fb5163e07923f9dd37afb55e8d": "3ad87c602155cad2162f56feaee58ddb1a2aff5505ff8d44a96744a1ceb2459ce7e6f8a6d5fd0e4eeb0265f401ec8e73a433f31b66ed6529cce0992f3efb3d18",
    ".git/HEAD": "c5ef991de5c498413b9d9d9ddff01061d56e1c749c97ccb0b16ecab42caf2af3c58f6709e84a05a086893473436700cc63f961e26f129c2d5dd10492bbeb1b6d",
    ".git/objects/1e/e5d8363a257386e5d98433ef13dcfbd752a69b": "bb024743ba0ed8d2a3c0e9b823cd17b227a383ae93cb35112eea4ca231b0a879763c282d4ac77fae128a587dc31d22345cf0e79c9e59e473394cd0363368163c",
    ".git/objects/af/640caac4075137e0876cf9988d0d1f6b682d72": "3bbd6e6e6fdaa7581fcc2f2b5ce41d40c5dee1c6c9c55e6509f4c6b5e39e01bcd48497ef854d456ee6c118b37b2e059ab80a99115d5392ce030eb36587d360f1",
    ".git/objects/f2/23d73646b1885f8161c2b2acacd43c72369272": "9e1f2b9bb46730482b5e8b821dff7a0412bf87a877f1a68119df1438efde15fc706f52103aec499e244015fa88dd7430e37a3760421b89c1ba8044226309b2c9",
    ".git/objects/a7/4f7680765888aec199c072dc41da6b6e87199e": "06ce2fc80674815f42d41d7e775b5840a449c78341d38b276fe55edc80cae5e74e079487493a264c74e37bf5e7917908e5a08c058a870b3e656bf89ead824730",
    ".git/objects/d0/e16df7789db630b9f002adbfc14af7e8117808": "06a6f482e3d893dd114e8783a89486ef6587da686dbcdb4a96eb0c184de2da06c0f09fd7e58c3d4972f16706ff3b39e6f05f3bc23050ec641237ce2a928ba9ff",
    ".git/objects/d6/3921aeb312ac1efead738811218fea094fd13c": "d50673a035fedb0ce9610700e56a07e0a9afb2ecfa76a6da8aa2948d40c08646418a5a79630edbeba95d9320594eced385ac34473a1fe2f0e7c99d57a61b4183",
    ".git/objects/4f/d38f9458e59797dead1b0299debb0896ab765b": "2ce00dd710f652d32aec0dafe4bfef9ade67a945d18e22ef8460f18973e1afba502a6f4a0b9bc53e5274e5fdf9450612cb7d552308d03b270799922fe1d5776d",
    ".git/objects/ad/b32afcc9c2e66834f1b4f279454a11107bf32b": "80c548c722a505b2c4faf37aa4f1eeff46d5c8d15c0f141a8d1c367c5b7e65aee5f1de59a0d44853e60b9ec1d1405ac79dd780b643646b58d302e4049ebef39c",
    ".git/objects/c2/fd7ae6610d8f38d940d840829196820d2ce4c3": "9476b5d968705b095c821b4ded5671b2bb21ddb881dddcf46710880ceea9b1a0eabad29b212dde02539323b41891303312df1fa8f4f85a28e84dd2b955bfa107",
    ".git/objects/d0/a2385f4eb1fa750d0316e2ad154ae37fc4492f": "95dbba2bbfe2f9f4a82ec0fc4957e2497ac03822c52b03e7995ce973ee03684ed5ad23384be0c205f7f14f16456a0345bf6cccb43b5bfc1e182e57546d9d05d5",
    ".git/objects/3f/10dd2bcd8d04b0e8df40d89bae5d393773fa84": "3cd7d8078c7b0a1c69a79df3599d01d82eccb3b72a78e9776e6a8e2962558f322617de0866d9e87aa4c93cdd9a74ed7a4724d670bcfa82b17c4b8f892eed85b7",
    ".git/objects/a6/0bdb91161dc5bca59b41e9a803ba092b59361c": "049bec73647afeed482c36e02d365152d9cadc0e383c6edd3f8efc8ba09539dc9b24475ce0b23a70e658deb1a041f19f984a13da99bb41d2ed3dd4de8dbed468",
    ".git/objects/85/4533f263ae972726652fd97359bdb3005c275a": "371d8ce3a9ba12a899564ab64ea3ce98f744d5cc6eaa134b4cdad07f1f7fcc46edc6214ac30c1f022284259644a07ebb9e7190e6ce4562ce04955fa889619c79",
    ".git/objects/34/831a5e835ad705334d331331169eecb7a5b755": "c8b11be2c78b8170aa065ab29979b0a2c74e13d8d8ca66c1581b1b95dd4e200a6ce606b17d9be4f362f18f297ebeca724c5a9cb61d2eac7cbf6d26a40b3cbcfc",
    ".git/objects/2b/b7a8bfa2bc9e010068a2c038b649ee3979c99c": "8f8c0bee9fb2590a42619745b51d367472df9ea5158f4b751488ce25c537b8b1a8389345d66c069c27070678dea6d23c54c8e5d8a6012c579436e6c33dfd506b",
    ".git/objects/27/4e504caf1a515567d9d658dc1833369feddac4": "c8d7efa7fcf3083d4dad21fea478596d07946cf9eaa517ae33aa75477a6467edddec2f697484103f91da9f8dd9055af354fdee13a498a0aaad78a65450958d06",
    ".git/objects/c7/64259a5feeb0ed1f8fe0df65de1ec57b4b6693": "113f1aba917e78222ef4058a1645c33487be1ef33974ed5ec58f01bc93058a695ddac18a67e1576c603efdf6cff09ecd008381e7c61c2d84c09b92611d2b75fc",
    ".git/objects/0c/1c0fd0933fca07b6349949882e2efe84b2cd51": "9c63c2a5112a3e0af7f18ed477386a5fa14ee0dc6ba390c651b6f2a97cc0be3c484235160ab3474854c307dcb8d0cf45e4701796b6660c4b798d90f270557455",
    ".git/objects/4a/a1f1c514eabfc7166bbf435c79c00ed465c735": "b83727418a9b243bbd47f02c685dc58f6261999d479c16499047237c7f58cb6631ac88adad17fe17bfdddde38f441c5209cffd69adee2f8757309243e2c801e3",
    ".git/objects/c0/328b3b9fcd55dde20aeb4ad86f76c8628b1ab3": "7dc4cb1d04116e85a669d9e56d0e3cebb330f74bedff4194b2184c5933c85fda9d207ad88ade8cb76f21932e3d8531fc75967e1330f84d138489591ee32baf0d",
    ".git/objects/27/bbe22d59b76bb124644b1118657840ed3f7d26": "890251b6b730a414a91c4b6f3884e4a417d34c2a46888cdb390e6137e063add1a7cffc8578f8e5b19ab50b21e9557da6e764e24cf5576271f4a374f6a718d3cd",
    ".git/objects/d5/2caa707df2e7ead9ea253a92cdf7615b5a0ecd": "37dac2b35efbf02baa8469bd1acdb730fc717f5c2b4762ad8c5e9d205010c8da699d447de100ea7f6490844dc6e1a1796096de99245fca8a24d899b43ee15fde",
    ".git/objects/d2/932a05d542bde9eda31f61b1538cf69e7fd87f": "e9b82a8782cd532fc491d3693b862629db50902d15aa423a8b70c70d0ccbcca5445630e10ea828e803a733c5361a730a656d97a0cd91ad66e987ad8c9f185107",
    ".git/objects/aa/d7992cd61c3537fc1e0fa03f461905edd6039d": "7f9443e28eed40714c739722da53c58b5fd5f4bce5cbd03501a01552b1e9f553eb7cf6caa3f176511f3adb82cb967e103615dad0cd9f197a9a40e64585406e6e",
    ".git/objects/91/c403847870abe5300e8b5648b41ccabdc58a83": "72e7b8df8303239a12c9ef525e2f248eb590a0f0fc6e11d0a28c7dbbc79ba730a149223dd619e9ccaeb926b034acf35712b92da856fe696e113abb138e4d9db4",
    ".git/objects/12/c3c6f709c3517264ed4df67b3d15f43a985159": "4b9b545a0614f0c6b9169f9c487edf462c7cf64333e11fc9b6626f07e5d63c6a16c92f8c3a3c85e0259a6194c193c037978c5815b2928359054780f0069ce235",
    ".git/objects/bf/b048e6735b74c62fc110ba95720e912c7a721b": "5ba5c4fde20a9c1155e330e41bbf1ce0586efd1f9c70cb82f9b79b632f804a531cc815cd999ac206433b896ee8ba9e76d10841cc15f8dd6f65cd983ca800d0c6",
    ".git/objects/e8/8513942c06622384cc29904a85ffb90954f46e": "e9fa8d2d21e6a47074ee59df6f99f39277892784c608cebe10aaaa1becb99a361b1885bedb150e7d6004d5294d08c9695e685e0e96b5cc7a75f1a389d2cdcd73",
    ".git/objects/bf/8239dc4271cf7eb2e2002eba36369726465991": "ab9a17132d290ed9ab5659b050f224dfb786996648dbac8e6f7d0e7aa5600f70c4369b3e6e868142f3ac770ae41bfd7c6e86934eb1a2b21a3312d23d86f47399",
    ".git/objects/f3/920103ba726b02b49fcca4debc1f0abc196311": "79ad9d0b59927d9b0c2c6b58ec7e674fd04edc0fefd7b05222aed1e45521e6542187e783f92befd35d147c87e7859737758b88e36ce754be3d4d35a291660963",
    ".git/objects/6d/aaf8c262a13c5bc4acb4642d85e613091a0f65": "41c396924a54a994a8fd47df0d4c08378c49c68ba3f5160a134b7e29a56694ca090067c96a58525305c326f628f9c5df6d8d33051f781eb7e2e27b9b707507ae",
    ".git/objects/7a/48d1dc77fd8cb6a612abc9f46b3bb5a8cb8627": "9a42bf386ed6fc2d1026d5770ea9f7e2cb8ae5bf7bfd6ead12402042f7e1a921350ee3f2a240bff68fb219928bf72b463cc1a51040b0030df84ef07a2656ac27",
    ".git/objects/88/a9f5c9d151efd893e55a52f0535640fe73618d": "d4ab80f485c4650eff42bd8263e4985dab8ff1bd9660104bd702efb8c34da7f66d83361bd0023366933d9b5efd3d6b7d3febeff29ce15a2e2e711d2ea0c2dd3f",
    ".git/objects/8f/3ad765e6743801b46445a0749d08ee98a9f0bd": "223e5b1b9d0694d68937a1a5b972e5fce24debe3ba1d327bb6377bb4c56d08ae203619e7ca142414b8537c60e2fdb0deb9f7d000d7e7500cc2d9e2e6a6e2e523",
    ".git/objects/1b/f6e665860661a09452242d2585b380372f061e": "c4b0d7e1168d34e6dad6e2f97dc60deec0c567d93d867205ac48909e9542f4a1b0706f9847de147cf47c5ebcff6f1347b3695dc38b94e76fe5e24defb1c6822d",
    ".git/objects/c7/1526b539c0fc3fd56b4ec5f0e499e5dde0d14b": "2151346e0df960232441dba72d9167e1bd18c75699ef93fa1e4f25df97e3d3bb95de8a395b7b4bca215ac2013898268e279893960e901d834eda2f10b61b84c3",
    ".git/objects/6a/0f5c38113e53cc7e9bb19871e3cacc62bc3738": "1b757aa745a65567ecb2b648a3d6939e88bc63d37713f161157c018cef8f12dac5fb3c9682d6073afd7c721ad7de7b9f40bfa0a61da48f40b7bf7fd78e1f039e",
    ".git/objects/bf/9be1ce7ac64f4b1f931803a3d2e4c56ff84737": "4587dd6a65dfd47b31b36e93b01d80c37833f0783f296e8804bc30da908af8005ebb30f6b449d5b0566716df64a04ad069a8d31767f4b18207df8402ecac44ba",
    ".git/objects/7a/a6df0a18cb3b786f45b743710523f359df8447": "6f637ba5707ec9892164e2fb02fd596b7fe551827bdff6c542e6e969ee9460d1daed6c04288f64d35e77dc634dea29e4e71c5c428ecc1bc18e4e1586de421ddc",
    ".git/objects/93/897fb3e081c4927bfb2b5eac75d6a320d9a816": "8129f3473d43ae6b101771edf915613ed9115e1b7b30e58b3fc8b5d66c894e6f034a7402aee3f3f361bb0946f9df3a26d662b7754b585b3149b92546d5ab4ae3",
    ".git/objects/8a/829751e23e148bb31adab4ef3687b6fb415add": "5018efa63f447ed7d2e852788d533930ed2b8dd70af81ce960cbfc0015546afc83c1e52beafe5ecb692120603c40d75f568cd52e1370dfefb227fae7e7bf8215",
    ".git/objects/c7/c2427f94e43e075e2ff3b6f78a7d1eb085df9c": "3c227ccdcd72abfeaf6655d6eb54b0a80ae5a1573b3bc571acbd39ef7dbf1c84bef1d1a924b6e419f5751645dbb7f1aca7e9cbd60bd1b5bdfe0397c2b23d05bb",
    ".git/objects/16/1bec014ca6dedccc4e38f876aa64ae56253e57": "f7dee508ef6159f19f720a182d3da163f69f1170348b45a7ec3aa317e4dfdf9cf6a83c4c3713f04a8721cdb014de488417163dc8cd74fb01121ae6e4c131d7ef",
    ".git/objects/32/29bab1a3f7609e5624ada34cd8411697b7d828": "20fff66a2bcd20aa0ff7fdea6ddce6f090c9485c892f34881597d1a37221515ce755c4ca1f34f5339de16e4fecf30c9c9e553f0dabf156974b125b51c9f3e80d",
    ".git/objects/b1/3d82334ba6278cb63c40ddcd504655e95ea624": "55c40c0afd4963c2888e2a104054f293e5fb7c54aa36317b429af51468d9edf41c9946e949683caaab7d450466349ac34b51095b6f78afae6b21f6cb925b877f",
    ".git/objects/1b/8f519cc771a391742006dbc8a9b0859d93230a": "c2b701a11a21c9330d5e2c95601f8cf77549aee984b49e7b8874b7c1d5c6445fdb07ea066f4ec51fbfc5f6e51483bce51b6757fd3f027e420ecf3346e42413b5",
    ".git/objects/cd/a67461dca571a441ac1ff719973bdd65b70a52": "4528ffc907352821c857f1736d096fabfb4e151bb98b67bbfa72490b3cf82338408e681eed10aaf146b89cdc8f242d93b13530b6d8c58bc17b8a580b053fcb36",
    ".git/objects/39/7c378357005f0ed5b06c66bf530503b0950340": "f8d74bc73901a493fb97c75fc40f91407476ea6ef8d12fad48df53b1b67b6846476b9be0a3b031fdde00e164c37277199942092d6d536a2cd232ce20ce214529",
    ".git/objects/bf/0482e79fe59b11d15b20dbb72a1e4a4e12b2d3": "d31aca5e428e40544dd07d82245b138e0fbeac4a592951c2f2caaed51b6b30555933a8982d308a86d973e6bdeec2a1b0edcd61b414b771adea4b3ac0f927cdfd",
    ".git/objects/39/0230bd7416e1d405b7bcebc4d29854c2c7592b": "765edf246df484c7c885e2aa9209e3d713c6c7a9887066443b551c123dcc370a6d648c4bb2c4497d2cea31618c89112226c58415d0a5e2bd1642264745baa11a",
    ".git/objects/e9/7ff6298b358c5eb66e1f2f4249f417d69336be": "0bace0ee6cbd92a8da7c7987ea673f4a728e096ed8ae269c2e9e068f671cb243e4667f77300f9d2a64cc77c3b5ab0a64d1a612ef0f5e3dfd68ca01c942b88766",
    ".git/objects/06/56ffe94dd5130a48fbce71642d498637f83ed4": "6f82996d842169deb21897356571617d815c8011c77d33a0178a8af85aa68cc71532fb641fbf5ba66bdcb92a91cabe02026c30b6430796ec6f4c5d7f3682bbeb",
    ".git/objects/e1/de854582bfa74c4db41a5c4e8ad2ff44112ed2": "df6584121d2d0ab4e01348b55a79ee7e13f92df2f6a0d5711da9a753c2c4f6b3dd12bc8911516f5154696ad5bca76f3ce45fc1978e1493b85e9f899edc374346",
    ".git/objects/f0/2d891ed9513f8512e2f2692841c5f41bb2c285": "28bcf4bdf32c5f0225ad3b761b42e2f7c59d06a9c40bc721f665ddb0a01a1ca1b912118195edc2fa1ba6c4bb434529e015c26bcbd16f950f9a267a1558f394b3",
    ".git/objects/55/0495df02fcaf23567d34327950ddd0f7d713cd": "962d19d746d0eb3b0cf8c54da18bf23f863068f8754808dda7f85684be5bcbfa820705d65a46d097902ca0cb66eef67abf90624787f04d8610da49743bb47ea4",
    ".git/objects/55/2746cd0766f117955fc4aa2a2b5bb5cf79ff9c": "43eb75dabab076fbd0dc92673815bf24f0dfb43df438189fbdd94524ad1fe448974a1eacdb3e9c3cde6c54ba76d74fc676cca02cf14d1532a049e78a6bcdba1e",
    ".git/objects/90/c2c051083aa368d013d7d6110883efeaa3d3b9": "793e9ead5ee671a52b7e0c615b87befe36402f5a927a2c283305411d01afc7880dc178255a4b93e509e757290149f579501945bc6e13e23354bd8b390d3fbc24",
    ".git/objects/eb/7abc1c768818ef4d32b370b0daadf73994a6c1": "43e2d35383048d16a8e19a07eef3a0c12652f076e3b05b17c2a7396455f13c3e3206150fb734e193816443853cb688325c7ce26fb9477212f146ef297015a49a",
    ".git/objects/c1/a2a8d80f8f7cfe183e2ffad657dd3bb5daf05a": "0d4f8348a44450969cc1c47de6da2f2abf23e6697f4176b42f6796268b9111490827d9c856e33cf6b1b8f03e378b53fbba1ca40894b9a362c7d9d5a1afccdf9a",
    ".git/objects/2f/26fb90e3b046b584866ff6f0ce9c4eb0e628e6": "6dbaa3a0504a4e0700bfa133336943b1210a56e256b6100087c53d2bb2172d50263558cab2fbc69f3051c3028f18fb91e3360bad2354f3ea55db0207cb8c0873",
    ".git/objects/fd/6f80ead00542ac6308ced6ffde5dde5f9901fd": "c977758db25b887d54e5d7097175b49b8b798a83020fe9de9d3eb782a24e8ce7cd74ca5f1bcd4db0cbca7dcc81db6472fb7d1c58239c5feac5c8f75372bc73b2",
    ".git/objects/be/6150c8be5741c1affee11a098e76bbb57d743c": "22ae2945a74b98bf4cd8826508b47808d07d2ece2df3ec802aff9bfc0ca25557f0ebb67f40ff79d980c9e1d1c238d2a90ad896e73649c7d67f1626ebc70e8983",
    ".git/objects/60/bd8ec818308b8dc9354c4fa0f8df9112f354c6": "b5d91b921d4b0f09a035223ae394c32a3e6f16252479c45b21c628b5bf3700a104dfc65bb7348f6328232e6ec6f384dcd2f205244208e5949e861337cc5e613c",
    ".git/objects/e9/e282f021af28e01c6e5124d44a26a76aaf5d94": "aa2bcb7872cd05344b0858c468fd7afb23ec492d3b3cee8cb9325671a2bda34a25402a5594c0f5b8fd5dd78049750637956a8ef40e6f8905f1d641d3320a9b6d",
    ".git/objects/9f/486c3e15fa8b9ebdbb2f7cc2dbe5dcf4166dad": "c5d2b726b302e0b9827354b161fe4eaea70f367d9db4b56a33cc672545b5e2550f530a4764f1ee96591e21a130166be72dc5ee45f381e597b6af9776e0627a06",
    ".git/objects/48/8468335f31e6502e6db8a5decfa4f1881102c7": "d73149dd0e152838e6059bdba9947eefe463637ac15e97e729ff36bd48af320bc817a29e43beb4ddc6ff9d07309af4a7e3f66045062a65c2c27117cd0fb11b24",
    ".git/logs/refs/remotes/origin/master": "d9d7a351a628e0c00fabd082f66d1f351d8947b8b6669104ed40e47227204f6782d7362cadc4a66bc8935da732bd1eb582d583b1f8a150666b8a03f847b75acf",
    ".git/hooks/pre-merge-commit.sample": "10a0ab86400b14f28f1fe80f589e97fda5b87ec94dbf2275085c7106a3320415e933f25ac9ba9d7bdad22e816ed323272fa5411d3b121c6162fb34e84eae3529",
    ".git/objects/d4/1bd4ab689075c0e19bc65f0d74aa4ac152131e": "3fc184af3dc7eb49b63de426f7a5d3dc9cbd90871599a411d254fad0f5f1bfff0e0867e7385266a450b6f3fd31f2b345e3188e76bca15d69da5a862765617ce3",
    ".git/hooks/pre-receive.sample": "869ffcb741fc29e044c2e632174a697fb2c0fb15a40d8258acc0bf440a48c010564f6406b339ddd443b529b32723924421f1d9b98c9601c94df67f9377cfdbf3",
    ".git/objects/90/a27d144695ac1959a2d8df4ed859850944de10": "4e65c6bac66dc5e14ecb102b3e48b1c63462747574f49f33d566f208f2c85cbf53c2d75561d5edbe9a7f82ad365931ec70bb16482f0909348cd704ebae46d0f0",
    ".git/hooks/commit-msg.sample": "b5cbf77a3a203c58b0469267544b8d8fb405364086733391d9e233316689ca8f3690852e061bc0fd938f5aa300cf08998fa1130e57f289b2932f0897e447302f",
    ".git/objects/6e/3a8961b73043f2641ce7bfa862c996e249ad54": "ba0927b93fc6756e330c193f0f4ff79a4f7a20b6aab59d188ac96263fe2e20371cf4431220b359f540b4c4746a19fa402a14f433dfbef050be49f97441af4846",
    ".git/objects/e2/d614ac2ffce02494d89c54bb8fdded25f4dd22": "623636abd12fdeadca37bd2a8ba38d6b54284e20ece5b9aed1b8dc9246f00a441bb9c334a7a7d21cbc498ce6297f271414e1a2d784a9369f4d8ca57cece07b53",
    ".git/objects/67/4215c7b771f881e85abd777fd22605f5b8c5b2": "8768930c5b79996ebc47204c5da9591e6a6c64dbea2f8d9851894dfc844680a3fdc9e50b36cc0a6d2de8d136d8ae73fc169b2015ebe22bd2ad09404f7a235ddd",
    ".git/hooks/prepare-commit-msg.sample": "8d22228475d20d6c3b16d668126e2527353515526c4fb9da3016ca610d4592deaaed36e01f3efb174496a16dd87c593ee8608adf100be31ec959e52e1123c5f1",
    ".git/hooks/applypatch-msg.sample": "e427cd2f218658198bbf333ccbd7f42c703a9aceb29023662e3ca8b4e4f71555b6fb701c5ba9b315025a000baf2146bd09e4a2f7a13e54d5049db1f80a40b0ae",
    ".git/hooks/fsmonitor-watchman.sample": "ecb2be903b9bdd6c6737113c840fc6f854e7e6dc063ab241492cb5b2a8cf06da754de1f2e9b3eead321ef673a3bb1eeb37827bd289234452f50a431084146d1d",
    ".git/hooks/pre-push.sample": "d37a4cf43a37e4bd527d35adde26aa5e8e1950fe709f8a1ac96dc8788e6f244860471492c1b2a8a7abeb6aebdb61854267519b3564eb3a74d5470ca50980b753",
    ".git/objects/9e/f4c104008d1ef0bccec67e6b59948fe8293dd1": "9c300270d55335e2d75a2bd1c8652c66d5182848724d423965d44abe50768a04fb3459165a5720e46b160cb025d4836d5fb1dde6e94ded07bf5a9177fb7a575a",
    ".git/objects/6f/96ab9c40bcbaad50899780e87af6507997ac7d": "40a90f4a69e0d8be546a70c77300383eb04076c6c2676e152d6141ccf053604c792df78bf7b5f07ffa4d40b4013f6ae6ecca147f8d7ea45aa792738b59531628",
    ".git/objects/bd/bf8781923231316e02e6114498be78a2a72e66": "f2b826731bbd62b94965971afcd93e002162bafb5be85c5f537310ed3eb8d35ca6f97fd6e44c7c8b3fe71a18d8b343937acde99ddfce2f8d907ed03a03bc231e",
    ".git/objects/b4/a71c8b724fbb46cf5cd6a289957ba60a908b02": "463ea1ad862cc9634e8863bf1b3e7f5770d9bbf785fe0dae231d19dfe35738f094eb4fc7f015332828b173007dbdc866ba8ab850b2f486b2d2e166a217e90d3b",
    ".git/hooks/post-update.sample": "059fab648a6c9bca17bb96d4e20272aebc1b3cdcf72764c2fb72d1ba919db84623a6f7a5e1da10c89936229643e88a5875c93122022ec5b63c15aafe561cff99",
    ".git/info/exclude": "7c0fb21a44258fb1356d6fb772555a27b86ab274236d2ea8f45035efc929b2d30b9ba7a975bdb3019832eb272e5ecdf21ff837675f923ac81f46bdd04d795bcc",
    ".git/hooks/pre-commit.sample": "ab9a461f4ac9317f77b3fd56e1daad8b5bc73215c677740cba3f24fa2a2eb8dd97fadc606fd83fae22dc166ad9fc3d61ba142f2faab63fde34c5b00201d9d30f",
    ".git/objects/b4/388248fac3086be0e9e836ff137c8d88155248": "f46064da8f0fe58ecccae7c5fe848b09a0cb26e9ba5448cc177bc6a23b77c4b7577164f73bddd0648a6899bf84962c8419bd3bd4e25580ff51de06d23310c7b2",
    ".git/logs/HEAD": "aed41f92c650e8cc4f5a97d75160b05d29e39935286c6c73274bfdf3964bdf2372062a692a3d999c5d0d3686763af302d971c17f4730dbbc30914183ec8288cd",
    ".git/refs/heads/master": "dff5fc42e86ea4d280ebcfbb7de4a83c379f340ff91da66cac098c8adb71d9a0b429906df5e7cb35379627849b0d92613669c7383f9c95c16e0361ffbec062db",
    ".git/refs/remotes/origin/master": "0b941fa71b9347ba4bb8449c3463e742dce312533a8aa43772ebd5dff468dcb6278494c71366fb423a502e6f546ca076c19a260d12df4810e3baae2cfffa8b9f",
    ".git/hooks/pre-applypatch.sample": "434e6e5e68568027e1cc7c7a4f7856e9193a71ed653a402e9b299a9095def9b97c6030f0e2b0a9020817d2c54a42ec65b2a1afeda009905325273657dd399e0f",
    ".git/hooks/update.sample": "3ac2dd5a48531113e042aed1621a3f5cc5bec85cf64ee8943334a723cfd38c8f425e048f59be9b848c73e784f581de9624c95c4e8a84479bd9317be4135b3483",
    ".git/logs/refs/heads/master": "664260a5ffc58fd1557a2c790665e2ad2d1136752b04ebb9773e276d2f547ee6ab01df3be4526e6444d6b05bb198bf453a0fe3ad189f8b55d0b373cab0728567",
    ".git/objects/6c/1aa7c6a9176845bed7fac3c92fcea2aa9fa049": "46654a7152e52c009cc4beeaa465f1f0987b7de3c5502c98f2cc35738807132112dd6387f361dd9bfbb8cf0f0bef3df91aefeffb0c7fb0395be28f02e347a57b",
    ".git/hooks/pre-rebase.sample": "3fa241d7c4e2566dca6f87eb65ba5cbf5b30f923944735e6fb78d99881cbd7f61e5c0db823b0f70db80feef1b9790e10f74f27068c8fc5323525d66d02c51369"
  }
}