{
  "hash_algorithm": "blake2b",
  "computer_name": "IEPT1150",
  "ip": "10.53.41.222",
  "user": "konstans",
  "timing": {
    "start_UTC": "20201202_102202",
    "start_local": "20201202_112202",
    "end_UTC": "20201202_102202",
    "end_local": "20201202_112202"
  },
  "computer_os": {
    "system": "Linux",
    "release": "5.4.72-1-MANJARO",
    "version": "#1 SMP PREEMPT Sat Oct 17 11:06:19 UTC 2020",
    "machine": "x86_64",
    "processor": ""
  },
  "python": "3.8.3",
  "checksums": 