{
  "hash_algorithm": "blake2b",
  "computer_name": "IEPT1150",
  "ip": "10.53.41.222",
  "user": "konstans",
  "timing": {
    "start_UTC": "20201202_122626",
    "start_local": "20201202_132626",
    "end_UTC": "20201202_122626",
    "end_local": "20201202_132626"
  },
  "computer_os": {
    "system": "Linux",
    "release": "5.4.72-1-MANJARO",
    "version": "#1 SMP PREEMPT Sat Oct 17 11:06:19 UTC 2020",
    "machine": "x86_64",
    "processor": ""
  },
  "python": "3.8.3",
  "checksums": {
    "readme.rst": "Error reading file: object str can't be used in 'await' expression",
    ".tags": "Error reading file: object str can't be used in 'await' expression",
    ".gitignore": "Error reading file: object str can't be used in 'await' expression",
    "file_sync_compare.py": "Error reading file: object str can't be used in 'await' expression",
    "some_folder/def.ab": "Error reading file: object str can't be used in 'await' expression",
    "some_folder/other_folder/abc.txt": "Error reading file: object str can't be used in 'await' expression",
    "__pycache__/file_sync_compare.cpython-37.pyc": "Error reading file: object str can't be used in 'await' expression",
    "__pycache__/file_sync_compare.cpython-38.pyc": "Error reading file: object str can't be used in 'await' expression",
    ".git/HEAD": "Error reading file: object str can't be used in 'await' expression",
    ".git/description": "Error reading file: object str can't be used in 'await' expression",
    ".git/FETCH_HEAD": "Error reading file: object str can't be used in 'await' expression",
    ".git/index": "Error reading file: object str can't be used in 'await' expression",
    ".git/ORIG_HEAD": "Error reading file: object str can't be used in 'await' expression",
    ".git/config": "Error reading file: object str can't be used in 'await' expression",
    ".git/COMMIT_EDITMSG": "Error reading file: object str can't be used in 'await' expression",
    ".git/objects/54/ef1a9e0d7e4c88e5259f2165a604fc656ab27e": "Error reading file: object str can't be used in 'await' expression",
    ".git/objects/84/bcf9721cc32f7d366cab2dff799aa8cb89991e": "Error reading file: object str can't be used in 'await' expression",
    ".git/objects/84/ced771366dcf42545691dc2185260316048da3": "Error reading file: object str can't be used in 'await' expression",
    ".git/objects/ef/f1305cbf0304fb5163e07923f9dd37afb55e8d": "Error reading file: object str can't be used in 'await' expression",
    ".git/objects/69/1be0dba727f46d2c1ced7a7f7b3053a100917b": "Error reading file: object str can't be used in 'await' expression",
    ".git/objects/66/a09e0b3bed277e5b8ba2870f41324dc813d973": "Error reading file: object str can't be used in 'await' expression",
    ".git/objects/b2/3ed22bebc8c00b17ee0fcb9082e2f873aca578": "Error reading file: object str can't be used in 'await' expression",
    ".git/objects/79/7e2edd25883c3da322cf8258a10b497b8bcde5": "Error reading file: object str can't be used in 'await' expression",
    ".git/objects/86/5b14e210f0ab8faace169f707780b5918146e1": "Error reading file: object str can't be used in 'await' expression",
    ".git/objects/d7/684eb6086df041af9486458517e15ad8cfc6eb": "Error reading file: object str can't be used in 'await' expression",
    ".git/objects/d7/cb3f92e64b949426997428788715d3de9983b4": "Error reading file: object str can't be used in 'await' expression",
    ".git/objects/68/454f06865d22b7005c4f6ad9154476fd82b97b": "Error reading file: object str can't be used in 'await' expression",
    ".git/objects/23/0627d72ad8ddc9c3b59fc17d41bfa38db64d18": "Error reading file: object str can't be used in 'await' expression",
    ".git/objects/df/b2a67cd90234662b3816169d9d5d4bf3563425": "Error reading file: object str can't be used in 'await' expression",
    ".git/objects/df/82e511a130bc3788b935c83148bef12b420f1d": "Error reading file: object str can't be used in 'await' expression",
    ".git/objects/da/6d50f0bd85bfa69cc39e725c7d7f2279e2f51e": "Error reading file: object str can't be used in 'await' expression",
    ".git/objects/f8/1b33f5c4e9be7b8be18c6e41f91779fbbadb72": "Error reading file: object str can't be used in 'await' expression",
    ".git/objects/1e/e5d8363a257386e5d98433ef13dcfbd752a69b": "Error reading file: object str can't be used in 'await' expression",
    ".git/objects/a7/4f7680765888aec199c072dc41da6b6e87199e": "Error reading file: object str can't be used in 'await' expression",
    ".git/objects/d0/e16df7789db630b9f002adbfc14af7e8117808": "Error reading file: object str can't be used in 'await' expression",
    ".git/objects/3f/10dd2bcd8d04b0e8df40d89bae5d393773fa84": "Error reading file: object str can't be used in 'await' expression",
    ".git/objects/4a/a1f1c514eabfc7166bbf435c79c00ed465c735": "Error reading file: object str can't be used in 'await' expression",
    ".git/objects/0c/1c0fd0933fca07b6349949882e2efe84b2cd51": "Error reading file: object str can't be used in 'await' expression",
    ".git/objects/a6/0bdb91161dc5bca59b41e9a803ba092b59361c": "Error reading file: object str can't be used in 'await' expression",
    ".git/objects/c7/1526b539c0fc3fd56b4ec5f0e499e5dde0d14b": "Error reading file: object str can't be used in 'await' expression",
    ".git/objects/c7/64259a5feeb0ed1f8fe0df65de1ec57b4b6693": "Error reading file: object str can't be used in 'await' expression",
    ".git/objects/6d/aaf8c262a13c5bc4acb4642d85e613091a0f65": "Error reading file: object str can't be used in 'await' expression",
    ".git/objects/e8/8513942c06622384cc29904a85ffb90954f46e": "Error reading file: object str can't be used in 'await' expression",
    ".git/objects/aa/d7992cd61c3537fc1e0fa03f461905edd6039d": "Error reading file: object str can't be used in 'await' expression",
    ".git/objects/cd/a67461dca571a441ac1ff719973bdd65b70a52": "Error reading file: object str can't be used in 'await' expression",
    ".git/objects/16/1bec014ca6dedccc4e38f876aa64ae56253e57": "Error reading file: object str can't be used in 'await' expression",
    ".git/objects/12/c3c6f709c3517264ed4df67b3d15f43a985159": "Error reading file: object str can't be used in 'await' expression",
    ".git/objects/7a/48d1dc77fd8cb6a612abc9f46b3bb5a8cb8627": "Error reading file: object str can't be used in 'await' expression",
    ".git/objects/1b/f6e665860661a09452242d2585b380372f061e": "Error reading file: object str can't be used in 'await' expression",
    ".git/objects/bf/9be1ce7ac64f4b1f931803a3d2e4c56ff84737": "Error reading file: object str can't be used in 'await' expression",
    ".git/objects/90/a27d144695ac1959a2d8df4ed859850944de10": "Error reading file: object str can't be used in 'await' expression",
    ".git/objects/06/56ffe94dd5130a48fbce71642d498637f83ed4": "Error reading file: object str can't be used in 'await' expression",
    ".git/objects/60/bd8ec818308b8dc9354c4fa0f8df9112f354c6": "Error reading file: object str can't be used in 'await' expression",
    ".git/objects/32/29bab1a3f7609e5624ada34cd8411697b7d828": "Error reading file: object str can't be used in 'await' expression",
    ".git/objects/93/897fb3e081c4927bfb2b5eac75d6a320d9a816": "Error reading file: object str can't be used in 'await' expression",
    ".git/objects/39/0230bd7416e1d405b7bcebc4d29854c2c7592b": "Error reading file: object str can't be used in 'await' expression",
    ".git/objects/39/7c378357005f0ed5b06c66bf530503b0950340": "Error reading file: object str can't be used in 'await' expression",
    ".git/objects/55/2746cd0766f117955fc4aa2a2b5bb5cf79ff9c": "Error reading file: object str can't be used in 'await' expression",
    ".git/objects/e1/de854582bfa74c4db41a5c4e8ad2ff44112ed2": "Error reading file: object str can't be used in 'await' expression",
    ".git/objects/b1/3d82334ba6278cb63c40ddcd504655e95ea624": "Error reading file: object str can't be used in 'await' expression",
    ".git/objects/f0/2d891ed9513f8512e2f2692841c5f41bb2c285": "Error reading file: object str can't be used in 'await' expression",
    ".git/objects/eb/7abc1c768818ef4d32b370b0daadf73994a6c1": "Error reading file: object str can't be used in 'await' expression",
    ".git/objects/d4/1bd4ab689075c0e19bc65f0d74aa4ac152131e": "Error reading file: object str can't be used in 'await' expression",
    ".git/objects/e9/e282f021af28e01c6e5124d44a26a76aaf5d94": "Error reading file: object str can't be used in 'await' expression",
    ".git/objects/6e/3a8961b73043f2641ce7bfa862c996e249ad54": "Error reading file: object str can't be used in 'await' expression",
    ".git/objects/67/4215c7b771f881e85abd777fd22605f5b8c5b2": "Error reading file: object str can't be used in 'await' expression",
    ".git/objects/9f/486c3e15fa8b9ebdbb2f7cc2dbe5dcf4166dad": "Error reading file: object str can't be used in 'await' expression",
    ".git/objects/c1/a2a8d80f8f7cfe183e2ffad657dd3bb5daf05a": "Error reading file: object str can't be used in 'await' expression",
    ".git/objects/b4/a71c8b724fbb46cf5cd6a289957ba60a908b02": "Error reading file: object str can't be used in 'await' expression",
    ".git/objects/b4/388248fac3086be0e9e836ff137c8d88155248": "Error reading file: object str can't be used in 'await' expression",
    ".git/objects/6f/96ab9c40bcbaad50899780e87af6507997ac7d": "Error reading file: object str can't be used in 'await' expression",
    ".git/logs/HEAD": "Error reading file: object str can't be used in 'await' expression",
    ".git/logs/refs/heads/master": "Error reading file: object str can't be used in 'await' expression",
    ".git/logs/refs/remotes/origin/master": "Error reading file: object str can't be used in 'await' expression",
    ".git/hooks/pre-receive.sample": "Error reading file: object str can't be used in 'await' expression",
    ".git/hooks/pre-merge-commit.sample": "Error reading file: object str can't be used in 'await' expression",
    ".git/hooks/fsmonitor-watchman.sample": "Error reading file: object str can't be used in 'await' expression",
    ".git/hooks/pre-commit.sample": "Error reading file: object str can't be used in 'await' expression",
    ".git/hooks/commit-msg.sample": "Error reading file: object str can't be used in 'await' expression",
    ".git/hooks/pre-push.sample": "Error reading file: object str can't be used in 'await' expression",
    ".git/hooks/pre-rebase.sample": "Error reading file: object str can't be used in 'await' expression",
    ".git/hooks/post-update.sample": "Error reading file: object str can't be used in 'await' expression",
    ".git/hooks/prepare-commit-msg.sample": "Error reading file: object str can't be used in 'await' expression",
    ".git/hooks/update.sample": "Error reading file: object str can't be used in 'await' expression",
    ".git/hooks/pre-applypatch.sample": "Error reading file: object str can't be used in 'await' expression",
    ".git/hooks/applypatch-msg.sample": "Error reading file: object str can't be used in 'await' expression",
    ".git/refs/heads/master": "Error reading file: object str can't be used in 'await' expression",
    ".git/refs/remotes/origin/master": "Error reading file: object str can't be used in 'await' expression",
    ".git/info/exclude": "Error reading file: object str can't be used in 'await' expression"
  }
}