{
  "hash_algorithm": "blake2b",
  "computer_name": "IEPT1150",
  "ip": "10.53.41.51",
  "user": "konstans",
  "timing": {
    "start_UTC": "20201202_094402",
    "start_local": "20201202_104402",
    "end_UTC": "20201202_094402",
    "end_local": "20201202_104402"
  },
  "computer_os": {
    "system": "Linux",
    "release": "5.4.72-1-MANJARO",
    "version": "#1 SMP PREEMPT Sat Oct 17 11:06:19 UTC 2020",
    "machine": "x86_64",
    "processor": ""
  },
  "python": "3.8.3",
  "checksums": {
    "readme.rst": "817cff9fe7d0e2f1b6537124bbeb52e130589cb7c0a645b0a64bba4102e4b285035f64e6356c837ecce406c1eca4c0aa1119759f4e268ff1ef9226ac5e6a16ca",
    ".tags": "da24d39b09b39a6df12c3d5372ca1b57fd0c094642114d7bed3ace4f36ac8c4fdb8441050328e73103310c022de833b0a2fcc9c5e1757954d2d5f0a83ce9a767",
    ".gitignore": "2adcc4785238b82cbc20abb45ee129f11cd79cc9184bd14e0bad907dc151f96f29933156ae5f24852d28974527286f6bab9b4775d5755eb60839a86a5612a973",
    "file_sync_compare.py": "0a4c55127dacc2caaeaead8dca9dab74431f1c3e69e786c2675c11bda8f2564ccf825c025205d1748728b1d321360816c7ac2d4d15d1d5495656138a14f922d2",
    "some_folder/def.ab": "Error reading file: [Errno 13] Permission denied: '/home/konstans/proj/file_sync_compare/some_folder/def.ab'",
    "some_folder/other_folder/abc.txt": "99cbd85749b0da63ef37309c69aaa7deebbe989ae13292c86e23575f603be3254a99d0d0d86100632a279f84463ca1ca36f60b2f0db22a7a2d82ef0b7a502645",
    "__pycache__/file_sync_compare.cpython-37.pyc": "157661d572c1356ea345cfc44573288622c7fb21d2bde48b962a19a4b10ef0ac4f2302e76414aaa827eb170e6b356306100e5e1170ea97e69f9bf1b7ea29aa87",
    "__pycache__/file_sync_compare.cpython-38.pyc": "826f2306532134431e46cb72a61d1c3d0bdbdb102f374accb1e5f374898af9ad422ff3149a50a45d0bfd8835a0fad45c8b0e155773dfb5feaf0cb705dca56c3a",
    ".git/HEAD": "c5ef991de5c498413b9d9d9ddff01061d56e1c749c97ccb0b16ecab42caf2af3c58f6709e84a05a086893473436700cc63f961e26f129c2d5dd10492bbeb1b6d",
    ".git/description": "ac012ec1f022aca011a6b0d8f6bf42d991744193aa2b8c905972437ff9ed50a4f98677bc8405963b9de15ce8b113b133d1449b31b3b0e910448ee4190928935f",
    ".git/FETCH_HEAD": "7b35ec2ddcf61121f576d9e27f9857116caa00c889f172241612c465123b45d03fdeb439cbe3d9141b0399e29b16e4edee61ffe7e5b3271f2234795afad63fcc",
    ".git/index": "bfe09122cd1c80f8e9b77ce74062a2f3daf32280674bb99232b98cf72d0ec690c93f9dd3845372248b96c3bf115171414bf2124628a12838247dda48d131dc2b",
    ".git/ORIG_HEAD": "c2a0e09ee71f2974c8b4237e7754427d7fdbee18580fa78aec163489effa200af760a3bf5b4c31121d87e9b0bf5c12bc50d519b9927cc3fb54ef7f73427960f3",
    ".git/config": "ce6e27cf38f0418b62fb301c1eae4a7f61397d641f3d41c92195ec9e4672f7afd2249ad2b4148f3e7d086bc682226ceef3ff1b64c698c1ef8105f56f80abef97",
    ".git/COMMIT_EDITMSG": "f976432ddd693aa5c4ddfca59ce9b4a93566e0537b6932b684e454e849c1bb7d06ae946cc185b25a2a9709c4312de952faa797b6495caaf19821688acaa1ae7b",
    ".git/objects/54/ef1a9e0d7e4c88e5259f2165a604fc656ab27e": "9e6550431d9839bb1b065cb3f7aa90fb36a770fb208350c6298ba47ae7ba7491fa676731e25eaa7d69ec64057288d1b5284aac66df02b0d40377a91f54ee9d7f",
    ".git/objects/84/bcf9721cc32f7d366cab2dff799aa8cb89991e": "de537921afb7fa0285f2102989e2d839c1c46d209fa95762576c884e8fdec4df0863ef42b5f6e07877aa70b2215bda6a52cf30e049e5aec1c54a14b99057cc4e",
    ".git/objects/ef/f1305cbf0304fb5163e07923f9dd37afb55e8d": "3ad87c602155cad2162f56feaee58ddb1a2aff5505ff8d44a96744a1ceb2459ce7e6f8a6d5fd0e4eeb0265f401ec8e73a433f31b66ed6529cce0992f3efb3d18",
    ".git/objects/b2/3ed22bebc8c00b17ee0fcb9082e2f873aca578": "b2b6ab6ed411a68a3100b912f1a4c9d052add883acaec06be4b3effda2a535da52d04c8a3bd7bb668e6067f473d6da574d29dcf2dba4590d438f1d56bfe84710",
    ".git/objects/79/7e2edd25883c3da322cf8258a10b497b8bcde5": "9d8628d92269c79da878403c3b427f8fda3dfb5770a2ed213806e50b557392dc6a93f22246156f605cf0c7298d3c6272015c23d925a2ebce4b9055e2c775c3b6",
    ".git/objects/d7/684eb6086df041af9486458517e15ad8cfc6eb": "0ed5391aa96a1c040028fe89f367bc9cdfe720589b9a5373e8a8aa2a221da7314e0ee04c74125d8df1b0dc7f4bfad33b46682219f37927b1f2dfbc31c83825b5",
    ".git/objects/d7/cb3f92e64b949426997428788715d3de9983b4": "e3ac64e2ed40f26fa30d50d86c55d9e49055de2ddbeaaef078c84a0b2ababf1c41a2f1a7d25a4a3438eb2461bde98ec0234adbee31510a47f2aa2300a9b85c66",
    ".git/objects/df/82e511a130bc3788b935c83148bef12b420f1d": "a69ac7914646d06171c895191736a457846cbd91cd1170a222fe590d32201f61666b245e7a9ba11b9ad8759bc9ef94bd3f4fe6448b1eff78ae91ec867abcfb0b",
    ".git/objects/da/6d50f0bd85bfa69cc39e725c7d7f2279e2f51e": "761acde30e565dce0610b5c20e9ed725030bff8d6a4942a7b4bb4b8680295fb905dfd0edc6ab34100a6320c56724bcf91310f3738553d63a92f05903506b0c27",
    ".git/objects/f8/1b33f5c4e9be7b8be18c6e41f91779fbbadb72": "f29f4c1945371c657efe4333efbfc6b991b0b61625cf88b0d2422a53950fb2eb0afe751a866865b0b567901ea20f820058a96ff1909f87957016b0f97e42d092",
    ".git/objects/d0/e16df7789db630b9f002adbfc14af7e8117808": "06a6f482e3d893dd114e8783a89486ef6587da686dbcdb4a96eb0c184de2da06c0f09fd7e58c3d4972f16706ff3b39e6f05f3bc23050ec641237ce2a928ba9ff",
    ".git/objects/a6/0bdb91161dc5bca59b41e9a803ba092b59361c": "049bec73647afeed482c36e02d365152d9cadc0e383c6edd3f8efc8ba09539dc9b24475ce0b23a70e658deb1a041f19f984a13da99bb41d2ed3dd4de8dbed468",
    ".git/objects/6d/aaf8c262a13c5bc4acb4642d85e613091a0f65": "41c396924a54a994a8fd47df0d4c08378c49c68ba3f5160a134b7e29a56694ca090067c96a58525305c326f628f9c5df6d8d33051f781eb7e2e27b9b707507ae",
    ".git/objects/aa/d7992cd61c3537fc1e0fa03f461905edd6039d": "7f9443e28eed40714c739722da53c58b5fd5f4bce5cbd03501a01552b1e9f553eb7cf6caa3f176511f3adb82cb967e103615dad0cd9f197a9a40e64585406e6e",
    ".git/objects/cd/a67461dca571a441ac1ff719973bdd65b70a52": "4528ffc907352821c857f1736d096fabfb4e151bb98b67bbfa72490b3cf82338408e681eed10aaf146b89cdc8f242d93b13530b6d8c58bc17b8a580b053fcb36",
    ".git/objects/12/c3c6f709c3517264ed4df67b3d15f43a985159": "4b9b545a0614f0c6b9169f9c487edf462c7cf64333e11fc9b6626f07e5d63c6a16c92f8c3a3c85e0259a6194c193c037978c5815b2928359054780f0069ce235",
    ".git/objects/1b/f6e665860661a09452242d2585b380372f061e": "c4b0d7e1168d34e6dad6e2f97dc60deec0c567d93d867205ac48909e9542f4a1b0706f9847de147cf47c5ebcff6f1347b3695dc38b94e76fe5e24defb1c6822d",
    ".git/objects/06/56ffe94dd5130a48fbce71642d498637f83ed4": "6f82996d842169deb21897356571617d815c8011c77d33a0178a8af85aa68cc71532fb641fbf5ba66bdcb92a91cabe02026c30b6430796ec6f4c5d7f3682bbeb",
    ".git/objects/93/897fb3e081c4927bfb2b5eac75d6a320d9a816": "8129f3473d43ae6b101771edf915613ed9115e1b7b30e58b3fc8b5d66c894e6f034a7402aee3f3f361bb0946f9df3a26d662b7754b585b3149b92546d5ab4ae3",
    ".git/objects/55/2746cd0766f117955fc4aa2a2b5bb5cf79ff9c": "43eb75dabab076fbd0dc92673815bf24f0dfb43df438189fbdd94524ad1fe448974a1eacdb3e9c3cde6c54ba76d74fc676cca02cf14d1532a049e78a6bcdba1e",
    ".git/objects/e1/de854582bfa74c4db41a5c4e8ad2ff44112ed2": "df6584121d2d0ab4e01348b55a79ee7e13f92df2f6a0d5711da9a753c2c4f6b3dd12bc8911516f5154696ad5bca76f3ce45fc1978e1493b85e9f899edc374346",
    ".git/objects/f0/2d891ed9513f8512e2f2692841c5f41bb2c285": "28bcf4bdf32c5f0225ad3b761b42e2f7c59d06a9c40bc721f665ddb0a01a1ca1b912118195edc2fa1ba6c4bb434529e015c26bcbd16f950f9a267a1558f394b3",
    ".git/objects/eb/7abc1c768818ef4d32b370b0daadf73994a6c1": "43e2d35383048d16a8e19a07eef3a0c12652f076e3b05b17c2a7396455f13c3e3206150fb734e193816443853cb688325c7ce26fb9477212f146ef297015a49a",
    ".git/objects/e9/e282f021af28e01c6e5124d44a26a76aaf5d94": "aa2bcb7872cd05344b0858c468fd7afb23ec492d3b3cee8cb9325671a2bda34a25402a5594c0f5b8fd5dd78049750637956a8ef40e6f8905f1d641d3320a9b6d",
    ".git/objects/6e/3a8961b73043f2641ce7bfa862c996e249ad54": "ba0927b93fc6756e330c193f0f4ff79a4f7a20b6aab59d188ac96263fe2e20371cf4431220b359f540b4c4746a19fa402a14f433dfbef050be49f97441af4846",
    ".git/objects/67/4215c7b771f881e85abd777fd22605f5b8c5b2": "8768930c5b79996ebc47204c5da9591e6a6c64dbea2f8d9851894dfc844680a3fdc9e50b36cc0a6d2de8d136d8ae73fc169b2015ebe22bd2ad09404f7a235ddd",
    ".git/objects/c1/a2a8d80f8f7cfe183e2ffad657dd3bb5daf05a": "0d4f8348a44450969cc1c47de6da2f2abf23e6697f4176b42f6796268b9111490827d9c856e33cf6b1b8f03e378b53fbba1ca40894b9a362c7d9d5a1afccdf9a",
    ".git/objects/b4/a71c8b724fbb46cf5cd6a289957ba60a908b02": "463ea1ad862cc9634e8863bf1b3e7f5770d9bbf785fe0dae231d19dfe35738f094eb4fc7f015332828b173007dbdc866ba8ab850b2f486b2d2e166a217e90d3b",
    ".git/objects/b4/388248fac3086be0e9e836ff137c8d88155248": "f46064da8f0fe58ecccae7c5fe848b09a0cb26e9ba5448cc177bc6a23b77c4b7577164f73bddd0648a6899bf84962c8419bd3bd4e25580ff51de06d23310c7b2",
    ".git/logs/HEAD": "2e06eaf26fa43f41d3cb9473ec10a1813e487c011fea3092b9042fdda783c753574f4cfb92a175bbe22a0740f01945fd7b6334dac746c767411c5c28e17d5013",
    ".git/logs/refs/heads/master": "2e06eaf26fa43f41d3cb9473ec10a1813e487c011fea3092b9042fdda783c753574f4cfb92a175bbe22a0740f01945fd7b6334dac746c767411c5c28e17d5013",
    ".git/logs/refs/remotes/origin/master": "e71f4e96b7fed93dbcb8969b7f9e439ec8f7dbfe5cfe8e8bcaf5470a7d99aced658b46f84ab96f27eba43e0eda6174b8050c3bbeab06364e2e5a1f49a1c9aed5",
    ".git/hooks/pre-receive.sample": "869ffcb741fc29e044c2e632174a697fb2c0fb15a40d8258acc0bf440a48c010564f6406b339ddd443b529b32723924421f1d9b98c9601c94df67f9377cfdbf3",
    ".git/hooks/pre-merge-commit.sample": "10a0ab86400b14f28f1fe80f589e97fda5b87ec94dbf2275085c7106a3320415e933f25ac9ba9d7bdad22e816ed323272fa5411d3b121c6162fb34e84eae3529",
    ".git/hooks/fsmonitor-watchman.sample": "ecb2be903b9bdd6c6737113c840fc6f854e7e6dc063ab241492cb5b2a8cf06da754de1f2e9b3eead321ef673a3bb1eeb37827bd289234452f50a431084146d1d",
    ".git/hooks/pre-commit.sample": "ab9a461f4ac9317f77b3fd56e1daad8b5bc73215c677740cba3f24fa2a2eb8dd97fadc606fd83fae22dc166ad9fc3d61ba142f2faab63fde34c5b00201d9d30f",
    ".git/hooks/commit-msg.sample": "b5cbf77a3a203c58b0469267544b8d8fb405364086733391d9e233316689ca8f3690852e061bc0fd938f5aa300cf08998fa1130e57f289b2932f0897e447302f",
    ".git/hooks/pre-push.sample": "d37a4cf43a37e4bd527d35adde26aa5e8e1950fe709f8a1ac96dc8788e6f244860471492c1b2a8a7abeb6aebdb61854267519b3564eb3a74d5470ca50980b753",
    ".git/hooks/pre-rebase.sample": "3fa241d7c4e2566dca6f87eb65ba5cbf5b30f923944735e6fb78d99881cbd7f61e5c0db823b0f70db80feef1b9790e10f74f27068c8fc5323525d66d02c51369",
    ".git/hooks/post-update.sample": "059fab648a6c9bca17bb96d4e20272aebc1b3cdcf72764c2fb72d1ba919db84623a6f7a5e1da10c89936229643e88a5875c93122022ec5b63c15aafe561cff99",
    ".git/hooks/prepare-commit-msg.sample": "8d22228475d20d6c3b16d668126e2527353515526c4fb9da3016ca610d4592deaaed36e01f3efb174496a16dd87c593ee8608adf100be31ec959e52e1123c5f1",
    ".git/hooks/update.sample": "3ac2dd5a48531113e042aed1621a3f5cc5bec85cf64ee8943334a723cfd38c8f425e048f59be9b848c73e784f581de9624c95c4e8a84479bd9317be4135b3483",
    ".git/hooks/pre-applypatch.sample": "434e6e5e68568027e1cc7c7a4f7856e9193a71ed653a402e9b299a9095def9b97c6030f0e2b0a9020817d2c54a42ec65b2a1afeda009905325273657dd399e0f",
    ".git/hooks/applypatch-msg.sample": "e427cd2f218658198bbf333ccbd7f42c703a9aceb29023662e3ca8b4e4f71555b6fb701c5ba9b315025a000baf2146bd09e4a2f7a13e54d5049db1f80a40b0ae",
    ".git/refs/heads/master": "c2a0e09ee71f2974c8b4237e7754427d7fdbee18580fa78aec163489effa200af760a3bf5b4c31121d87e9b0bf5c12bc50d519b9927cc3fb54ef7f73427960f3",
    ".git/refs/remotes/origin/master": "c2a0e09ee71f2974c8b4237e7754427d7fdbee18580fa78aec163489effa200af760a3bf5b4c31121d87e9b0bf5c12bc50d519b9927cc3fb54ef7f73427960f3",
    ".git/info/exclude": "7c0fb21a44258fb1356d6fb772555a27b86ab274236d2ea8f45035efc929b2d30b9ba7a975bdb3019832eb272e5ecdf21ff837675f923ac81f46bdd04d795bcc"
  }
}